EESchema Schematic File Version 4
EELAYER 30 0
EELAYER END
$Descr A4 11693 8268
encoding utf-8
Sheet 2 3
Title "Zoxtros-32 Joystick"
Date "2021-11-11"
Rev ""
Comp ""
Comment1 ""
Comment2 ""
Comment3 ""
Comment4 ""
$EndDescr
$Comp
L Connector:DB9_Male J8
U 1 1 61F28473
P 8250 2900
F 0 "J8" H 8430 2946 50  0000 L CNN
F 1 "DB9_Male" H 8430 2855 50  0000 L CNN
F 2 "" H 8250 2900 50  0001 C CNN
F 3 " ~" H 8250 2900 50  0001 C CNN
	1    8250 2900
	1    0    0    -1  
$EndComp
$Comp
L 74xx:74HCT244 U25
U 1 1 61F28479
P 6200 3150
F 0 "U25" H 6400 3900 50  0000 C CNN
F 1 "74HCT244" H 6450 3800 50  0000 C CNN
F 2 "" H 6200 3150 50  0001 C CNN
F 3 "https://assets.nexperia.com/documents/data-sheet/74HC_HCT244.pdf" H 6200 3150 50  0001 C CNN
	1    6200 3150
	1    0    0    -1  
$EndComp
$Comp
L Comparator:LM339 U?
U 5 1 61F2847F
P 9050 4400
AR Path="/61F2847F" Ref="U?"  Part="5" 
AR Path="/61F1E8E8/61F2847F" Ref="U24"  Part="5" 
F 0 "U24" H 9008 4446 50  0000 L CNN
F 1 "LM339" H 9008 4355 50  0000 L CNN
F 2 "" H 9000 4500 50  0001 C CNN
F 3 "https://www.st.com/resource/en/datasheet/lm139.pdf" H 9100 4600 50  0001 C CNN
	5    9050 4400
	1    0    0    -1  
$EndComp
$Comp
L Device:R_Network05_US RN1
U 1 1 61F2848E
P 5050 2700
F 0 "RN1" V 5475 2700 50  0000 C CNN
F 1 "4.7K" V 5384 2700 50  0000 C CNN
F 2 "Resistor_THT:R_Array_SIP6" V 5425 2700 50  0001 C CNN
F 3 "http://www.vishay.com/docs/31509/csc.pdf" H 5050 2700 50  0001 C CNN
	1    5050 2700
	0    -1   -1   0   
$EndComp
NoConn ~ 5250 2600
Wire Wire Line
	5250 2900 5400 2900
Wire Wire Line
	5400 3250 5700 3250
Wire Wire Line
	5250 2800 5550 2800
Wire Wire Line
	5550 3350 5700 3350
Wire Wire Line
	5250 2700 5500 2700
Wire Wire Line
	5500 3150 5700 3150
Wire Wire Line
	5700 3050 5600 3050
Wire Wire Line
	5600 2500 5250 2500
Wire Wire Line
	7950 2700 7600 2700
Wire Wire Line
	7600 2700 7600 4100
Wire Wire Line
	7600 4100 5700 4100
Wire Wire Line
	5700 4100 5700 3650
Connection ~ 5700 3650
Wire Wire Line
	5700 3650 5700 3550
$Comp
L Comparator:LM339 U24
U 1 1 61F284A5
P 3450 4150
F 0 "U24" H 3450 3850 50  0000 C CNN
F 1 "LM339" H 3450 3950 50  0000 C CNN
F 2 "" H 3400 4250 50  0001 C CNN
F 3 "https://www.st.com/resource/en/datasheet/lm139.pdf" H 3500 4350 50  0001 C CNN
	1    3450 4150
	1    0    0    -1  
$EndComp
Wire Wire Line
	5400 2900 5400 3250
Wire Wire Line
	5550 2800 5550 3350
Wire Wire Line
	5600 2500 5600 3050
Wire Wire Line
	5500 2700 5500 3150
Connection ~ 5600 3050
Connection ~ 5500 3150
Connection ~ 5400 3250
Connection ~ 5550 3350
$Comp
L Comparator:LM339 U24
U 3 1 61F284B7
P 4100 2850
F 0 "U24" H 4100 3150 50  0000 C CNN
F 1 "LM339" H 4100 3050 50  0000 C CNN
F 2 "" H 4050 2950 50  0001 C CNN
F 3 "https://www.st.com/resource/en/datasheet/lm139.pdf" H 4150 3050 50  0001 C CNN
	3    4100 2850
	1    0    0    -1  
$EndComp
$Comp
L Comparator:LM339 U24
U 4 1 61F284BD
P 4100 3250
F 0 "U24" H 4100 2950 50  0000 C CNN
F 1 "LM339" H 4100 3050 50  0000 C CNN
F 2 "" H 4050 3350 50  0001 C CNN
F 3 "https://www.st.com/resource/en/datasheet/lm139.pdf" H 4150 3450 50  0001 C CNN
	4    4100 3250
	1    0    0    -1  
$EndComp
Wire Wire Line
	3800 3150 3800 2950
$Comp
L Comparator:LM339 U24
U 2 1 61F284C4
P 3450 3750
F 0 "U24" H 3450 4050 50  0000 C CNN
F 1 "LM339" H 3450 3950 50  0000 C CNN
F 2 "" H 3400 3850 50  0001 C CNN
F 3 "https://www.st.com/resource/en/datasheet/lm139.pdf" H 3500 3950 50  0001 C CNN
	2    3450 3750
	1    0    0    -1  
$EndComp
$Comp
L 6309:Analog_Joystick U23
U 1 1 61F284D2
P 2950 2800
F 0 "U23" H 2950 3265 50  0000 C CNN
F 1 "Analog_Joystick" H 2950 3174 50  0000 C CNN
F 2 "" H 3050 2650 50  0001 C CNN
F 3 "" H 3050 2650 50  0001 C CNN
	1    2950 2800
	1    0    0    -1  
$EndComp
$Comp
L Device:R_US R10
U 1 1 61F284D8
P 2300 3000
F 0 "R10" H 2368 3046 50  0000 L CNN
F 1 "1K" H 2368 2955 50  0000 L CNN
F 2 "" V 2340 2990 50  0001 C CNN
F 3 "~" H 2300 3000 50  0001 C CNN
	1    2300 3000
	1    0    0    -1  
$EndComp
Wire Wire Line
	2550 2850 2300 2850
Wire Wire Line
	2300 3150 2300 3200
$Comp
L Device:R_US R11
U 1 1 61F284E8
P 2500 3500
F 0 "R11" H 2568 3546 50  0000 L CNN
F 1 "6.8K" H 2568 3455 50  0000 L CNN
F 2 "" V 2540 3490 50  0001 C CNN
F 3 "~" H 2500 3500 50  0001 C CNN
	1    2500 3500
	1    0    0    -1  
$EndComp
$Comp
L Device:R_US R12
U 1 1 61F284EE
P 2500 3800
F 0 "R12" H 2568 3846 50  0000 L CNN
F 1 "3.3K" H 2568 3755 50  0000 L CNN
F 2 "" V 2540 3790 50  0001 C CNN
F 3 "~" H 2500 3800 50  0001 C CNN
	1    2500 3800
	1    0    0    -1  
$EndComp
$Comp
L Device:R_US R14
U 1 1 61F284F4
P 2850 4400
F 0 "R14" H 2918 4446 50  0000 L CNN
F 1 "6.8K" H 2918 4355 50  0000 L CNN
F 2 "" V 2890 4390 50  0001 C CNN
F 3 "~" H 2850 4400 50  0001 C CNN
	1    2850 4400
	-1   0    0    1   
$EndComp
$Comp
L Device:R_US R13
U 1 1 61F284FA
P 2850 4100
F 0 "R13" H 2918 4146 50  0000 L CNN
F 1 "3.3K" H 2918 4055 50  0000 L CNN
F 2 "" V 2890 4090 50  0001 C CNN
F 3 "~" H 2850 4100 50  0001 C CNN
	1    2850 4100
	-1   0    0    1   
$EndComp
Wire Wire Line
	2850 4250 3100 4250
Connection ~ 2850 4250
Wire Wire Line
	2500 3650 3150 3650
Connection ~ 2500 3650
Wire Wire Line
	2500 2750 2550 2750
$Comp
L power:VCC #PWR0136
U 1 1 61F2B97F
P 7950 2500
F 0 "#PWR0136" H 7950 2350 50  0001 C CNN
F 1 "VCC" H 7965 2673 50  0000 C CNN
F 2 "" H 7950 2500 50  0001 C CNN
F 3 "" H 7950 2500 50  0001 C CNN
	1    7950 2500
	1    0    0    -1  
$EndComp
$Comp
L power:GND #PWR0137
U 1 1 61F30E08
P 7950 3300
F 0 "#PWR0137" H 7950 3050 50  0001 C CNN
F 1 "GND" H 7955 3127 50  0000 C CNN
F 2 "" H 7950 3300 50  0001 C CNN
F 3 "" H 7950 3300 50  0001 C CNN
	1    7950 3300
	1    0    0    -1  
$EndComp
$Comp
L power:VCC #PWR0138
U 1 1 61F3B24B
P 8950 4100
F 0 "#PWR0138" H 8950 3950 50  0001 C CNN
F 1 "VCC" H 8965 4273 50  0000 C CNN
F 2 "" H 8950 4100 50  0001 C CNN
F 3 "" H 8950 4100 50  0001 C CNN
	1    8950 4100
	1    0    0    -1  
$EndComp
$Comp
L power:GND #PWR0139
U 1 1 61F3B6AC
P 8950 4700
F 0 "#PWR0139" H 8950 4450 50  0001 C CNN
F 1 "GND" H 8955 4527 50  0000 C CNN
F 2 "" H 8950 4700 50  0001 C CNN
F 3 "" H 8950 4700 50  0001 C CNN
	1    8950 4700
	1    0    0    -1  
$EndComp
$Comp
L power:VCC #PWR099
U 1 1 61F44F1A
P 6200 2350
F 0 "#PWR099" H 6200 2200 50  0001 C CNN
F 1 "VCC" H 6215 2523 50  0000 C CNN
F 2 "" H 6200 2350 50  0001 C CNN
F 3 "" H 6200 2350 50  0001 C CNN
	1    6200 2350
	1    0    0    -1  
$EndComp
$Comp
L power:VCC #PWR098
U 1 1 61F4789E
P 4700 2900
F 0 "#PWR098" H 4700 2750 50  0001 C CNN
F 1 "VCC" H 4715 3073 50  0000 C CNN
F 2 "" H 4700 2900 50  0001 C CNN
F 3 "" H 4700 2900 50  0001 C CNN
	1    4700 2900
	1    0    0    -1  
$EndComp
Wire Wire Line
	4700 2900 4850 2900
$Comp
L power:GND #PWR0100
U 1 1 61F49482
P 6200 3950
F 0 "#PWR0100" H 6200 3700 50  0001 C CNN
F 1 "GND" H 6205 3777 50  0000 C CNN
F 2 "" H 6200 3950 50  0001 C CNN
F 3 "" H 6200 3950 50  0001 C CNN
	1    6200 3950
	1    0    0    -1  
$EndComp
$Comp
L power:GND #PWR092
U 1 1 61F49C25
P 2850 4550
F 0 "#PWR092" H 2850 4300 50  0001 C CNN
F 1 "GND" H 2855 4377 50  0000 C CNN
F 2 "" H 2850 4550 50  0001 C CNN
F 3 "" H 2850 4550 50  0001 C CNN
	1    2850 4550
	1    0    0    -1  
$EndComp
$Comp
L power:GND #PWR086
U 1 1 61F4B2A0
P 2300 3200
F 0 "#PWR086" H 2300 2950 50  0001 C CNN
F 1 "GND" H 2305 3027 50  0000 C CNN
F 2 "" H 2300 3200 50  0001 C CNN
F 3 "" H 2300 3200 50  0001 C CNN
	1    2300 3200
	1    0    0    -1  
$EndComp
$Comp
L power:GND #PWR089
U 1 1 61F504CB
P 2500 3950
F 0 "#PWR089" H 2500 3700 50  0001 C CNN
F 1 "GND" H 2505 3777 50  0000 C CNN
F 2 "" H 2500 3950 50  0001 C CNN
F 3 "" H 2500 3950 50  0001 C CNN
	1    2500 3950
	1    0    0    -1  
$EndComp
$Comp
L power:GND #PWR090
U 1 1 61F50B64
P 2850 3200
F 0 "#PWR090" H 2850 2950 50  0001 C CNN
F 1 "GND" H 2855 3027 50  0000 C CNN
F 2 "" H 2850 3200 50  0001 C CNN
F 3 "" H 2850 3200 50  0001 C CNN
	1    2850 3200
	1    0    0    -1  
$EndComp
$Comp
L power:GND #PWR094
U 1 1 61F530BA
P 3350 2700
F 0 "#PWR094" H 3350 2450 50  0001 C CNN
F 1 "GND" V 3355 2572 50  0000 R CNN
F 2 "" H 3350 2700 50  0001 C CNN
F 3 "" H 3350 2700 50  0001 C CNN
	1    3350 2700
	0    -1   -1   0   
$EndComp
$Comp
L power:VCC #PWR095
U 1 1 61F54BF7
P 3350 2900
F 0 "#PWR095" H 3350 2750 50  0001 C CNN
F 1 "VCC" V 3365 3028 50  0000 L CNN
F 2 "" H 3350 2900 50  0001 C CNN
F 3 "" H 3350 2900 50  0001 C CNN
	1    3350 2900
	0    1    1    0   
$EndComp
$Comp
L power:VCC #PWR093
U 1 1 61F55738
P 3050 3200
F 0 "#PWR093" H 3050 3050 50  0001 C CNN
F 1 "VCC" H 3065 3373 50  0000 C CNN
F 2 "" H 3050 3200 50  0001 C CNN
F 3 "" H 3050 3200 50  0001 C CNN
	1    3050 3200
	-1   0    0    1   
$EndComp
$Comp
L power:VCC #PWR088
U 1 1 61F56B9D
P 2500 3350
F 0 "#PWR088" H 2500 3200 50  0001 C CNN
F 1 "VCC" H 2515 3523 50  0000 C CNN
F 2 "" H 2500 3350 50  0001 C CNN
F 3 "" H 2500 3350 50  0001 C CNN
	1    2500 3350
	1    0    0    -1  
$EndComp
$Comp
L power:VCC #PWR091
U 1 1 61F5746C
P 2850 3950
F 0 "#PWR091" H 2850 3800 50  0001 C CNN
F 1 "VCC" H 2865 4123 50  0000 C CNN
F 2 "" H 2850 3950 50  0001 C CNN
F 3 "" H 2850 3950 50  0001 C CNN
	1    2850 3950
	1    0    0    -1  
$EndComp
Wire Wire Line
	3350 2800 3800 2800
Wire Wire Line
	3800 2800 3800 2950
Connection ~ 3800 2950
Wire Wire Line
	3150 3650 3150 3350
Wire Wire Line
	3150 3350 3800 3350
Connection ~ 3150 3650
Wire Wire Line
	3800 2750 3700 2750
Wire Wire Line
	3700 2750 3700 3400
Wire Wire Line
	3700 3400 3100 3400
Wire Wire Line
	3100 3400 3100 4250
Connection ~ 3100 4250
Wire Wire Line
	3100 4250 3150 4250
Wire Wire Line
	3150 4050 3150 3850
Wire Wire Line
	3150 3850 2950 3850
Wire Wire Line
	2950 3850 2950 3200
Connection ~ 3150 3850
Wire Wire Line
	3750 3750 4550 3750
Wire Wire Line
	4550 3750 4550 3150
Wire Wire Line
	4550 3150 5500 3150
Wire Wire Line
	3750 4150 4600 4150
Wire Wire Line
	4600 4150 4600 3050
Wire Wire Line
	4600 3050 5600 3050
Wire Wire Line
	4400 3250 4400 3350
Wire Wire Line
	4400 3350 5550 3350
Wire Wire Line
	4500 3250 4500 2850
Wire Wire Line
	4500 2850 4400 2850
Wire Wire Line
	4500 3250 5400 3250
Wire Wire Line
	5700 2200 5700 2650
$Comp
L Switch:SW_Push SW2
U 1 1 61F8CB1F
P 4050 1900
F 0 "SW2" H 4050 2185 50  0000 C CNN
F 1 "SW_Push" H 4050 2094 50  0000 C CNN
F 2 "" H 4050 2100 50  0001 C CNN
F 3 "~" H 4050 2100 50  0001 C CNN
	1    4050 1900
	1    0    0    -1  
$EndComp
$Comp
L Device:R_US R15
U 1 1 61F95866
P 3700 1900
F 0 "R15" H 3768 1946 50  0000 L CNN
F 1 "1K" H 3768 1855 50  0000 L CNN
F 2 "" V 3740 1890 50  0001 C CNN
F 3 "~" H 3700 1900 50  0001 C CNN
	1    3700 1900
	0    1    1    0   
$EndComp
Wire Wire Line
	3550 1900 3500 1900
$Comp
L power:GND #PWR096
U 1 1 61F9586E
P 3500 1900
F 0 "#PWR096" H 3500 1650 50  0001 C CNN
F 1 "GND" H 3505 1727 50  0000 C CNN
F 2 "" H 3500 1900 50  0001 C CNN
F 3 "" H 3500 1900 50  0001 C CNN
	1    3500 1900
	0    1    1    0   
$EndComp
$Comp
L power:VCC #PWR087
U 1 1 61F97151
P 2500 2750
F 0 "#PWR087" H 2500 2600 50  0001 C CNN
F 1 "VCC" H 2515 2923 50  0000 C CNN
F 2 "" H 2500 2750 50  0001 C CNN
F 3 "" H 2500 2750 50  0001 C CNN
	1    2500 2750
	1    0    0    -1  
$EndComp
Wire Wire Line
	2300 2200 5700 2200
Wire Wire Line
	2300 2200 2300 2850
Connection ~ 2300 2850
Wire Wire Line
	5650 2400 5650 2750
Wire Wire Line
	5650 2750 5700 2750
Wire Wire Line
	3850 1900 3850 2400
Wire Wire Line
	3850 2400 5650 2400
Connection ~ 3850 1900
$Comp
L power:VCC #PWR097
U 1 1 61F9D244
P 4250 1900
F 0 "#PWR097" H 4250 1750 50  0001 C CNN
F 1 "VCC" V 4265 2028 50  0000 L CNN
F 2 "" H 4250 1900 50  0001 C CNN
F 3 "" H 4250 1900 50  0001 C CNN
	1    4250 1900
	0    1    1    0   
$EndComp
NoConn ~ 5700 2850
NoConn ~ 5700 2950
NoConn ~ 6700 2850
NoConn ~ 6700 2950
Wire Wire Line
	6700 3050 7750 3050
Wire Wire Line
	7750 3050 7750 3200
Wire Wire Line
	7750 3200 7950 3200
Wire Wire Line
	7950 3000 7700 3000
Wire Wire Line
	7700 3000 7700 3150
Wire Wire Line
	7700 3150 6700 3150
Wire Wire Line
	6700 3250 7650 3250
Wire Wire Line
	7650 3250 7650 2800
Wire Wire Line
	7650 2800 7950 2800
Wire Wire Line
	6700 3350 7850 3350
Wire Wire Line
	7850 3350 7850 2600
Wire Wire Line
	7850 2600 7950 2600
Wire Wire Line
	7950 2900 6950 2900
Wire Wire Line
	6950 2900 6950 2750
Wire Wire Line
	6950 2750 6700 2750
Wire Wire Line
	6700 2650 7450 2650
Wire Wire Line
	7450 2650 7450 3100
Wire Wire Line
	7450 3100 7950 3100
$EndSCHEMATC
