EESchema Schematic File Version 4
EELAYER 30 0
EELAYER END
$Descr User 14174 16929
encoding utf-8
Sheet 1 3
Title "6309 computer"
Date "2021-11-11"
Rev ""
Comp ""
Comment1 ""
Comment2 ""
Comment3 ""
Comment4 ""
$EndDescr
$Comp
L 6309:KM681000CLP U2
U 1 1 606741C4
P 1800 7750
F 0 "U2" H 1450 8800 50  0000 C CNN
F 1 "KM681000CLP" H 1450 8700 50  0000 C CNN
F 2 "" H 1800 7750 50  0001 C CNN
F 3 "" H 1800 7750 50  0001 C CNN
	1    1800 7750
	1    0    0    -1  
$EndComp
$Comp
L Device:C_Small C1
U 1 1 6067427B
P 6700 1150
F 0 "C1" V 6500 1100 50  0000 C CNN
F 1 "0.1uF" V 6600 1100 50  0000 C CNN
F 2 "" H 6700 1150 50  0001 C CNN
F 3 "~" H 6700 1150 50  0001 C CNN
	1    6700 1150
	0    1    1    0   
$EndComp
$Comp
L power:GND #PWR03
U 1 1 60674326
P 6600 1150
F 0 "#PWR03" H 6600 900 50  0001 C CNN
F 1 "GND" H 6500 1050 50  0000 C CNN
F 2 "" H 6600 1150 50  0001 C CNN
F 3 "" H 6600 1150 50  0001 C CNN
	1    6600 1150
	1    0    0    -1  
$EndComp
Wire Wire Line
	6800 1100 6800 1150
Connection ~ 6800 1150
Wire Wire Line
	6800 1150 6800 1250
$Comp
L power:GND #PWR08
U 1 1 606744BA
P 1800 8750
F 0 "#PWR08" H 1800 8500 50  0001 C CNN
F 1 "GND" H 1805 8577 50  0000 C CNN
F 2 "" H 1800 8750 50  0001 C CNN
F 3 "" H 1800 8750 50  0001 C CNN
	1    1800 8750
	1    0    0    -1  
$EndComp
$Comp
L Device:Jumper_NC_Small JP1
U 1 1 606745C2
P 3550 8450
F 0 "JP1" H 3550 8550 50  0000 C CNN
F 1 "a" H 3700 8550 50  0001 C CNN
F 2 "" H 3550 8450 50  0001 C CNN
F 3 "~" H 3550 8450 50  0001 C CNN
	1    3550 8450
	1    0    0    -1  
$EndComp
Text Label 2300 7950 0    50   ~ 0
WE
Text Label 2300 8050 0    50   ~ 0
OE
Text Label 2300 8200 0    50   ~ 0
RAMCS
$Comp
L Device:Crystal Y1
U 1 1 6067603C
P 7250 3450
F 0 "Y1" H 7250 3200 50  0000 C CNN
F 1 "8MHz" H 7250 3300 50  0000 C CNN
F 2 "" H 7250 3450 50  0001 C CNN
F 3 "~" H 7250 3450 50  0001 C CNN
	1    7250 3450
	-1   0    0    1   
$EndComp
Wire Wire Line
	7300 3150 7100 3150
Wire Wire Line
	7100 3150 7100 3450
Wire Wire Line
	7400 3450 7400 3150
$Comp
L Device:C_Small C3
U 1 1 6067626D
P 7400 3550
F 0 "C3" H 7492 3596 50  0000 L CNN
F 1 "27pF" H 7492 3505 50  0000 L CNN
F 2 "" H 7400 3550 50  0001 C CNN
F 3 "~" H 7400 3550 50  0001 C CNN
	1    7400 3550
	1    0    0    -1  
$EndComp
Connection ~ 7400 3450
$Comp
L Device:C_Small C2
U 1 1 606762D0
P 7100 3550
F 0 "C2" H 6900 3600 50  0000 L CNN
F 1 "27pF" H 6850 3500 50  0000 L CNN
F 2 "" H 7100 3550 50  0001 C CNN
F 3 "~" H 7100 3550 50  0001 C CNN
	1    7100 3550
	1    0    0    -1  
$EndComp
Connection ~ 7100 3450
$Comp
L power:GND #PWR04
U 1 1 606765E5
P 7100 3650
F 0 "#PWR04" H 7100 3400 50  0001 C CNN
F 1 "GND" H 7105 3477 50  0000 C CNN
F 2 "" H 7100 3650 50  0001 C CNN
F 3 "" H 7100 3650 50  0001 C CNN
	1    7100 3650
	1    0    0    -1  
$EndComp
$Comp
L power:GND #PWR06
U 1 1 60676628
P 7400 3650
F 0 "#PWR06" H 7400 3400 50  0001 C CNN
F 1 "GND" H 7405 3477 50  0000 C CNN
F 2 "" H 7400 3650 50  0001 C CNN
F 3 "" H 7400 3650 50  0001 C CNN
	1    7400 3650
	1    0    0    -1  
$EndComp
$Comp
L power:GND #PWR02
U 1 1 606767F4
P 6800 3150
F 0 "#PWR02" H 6800 2900 50  0001 C CNN
F 1 "GND" H 6805 2977 50  0000 C CNN
F 2 "" H 6800 3150 50  0001 C CNN
F 3 "" H 6800 3150 50  0001 C CNN
	1    6800 3150
	1    0    0    -1  
$EndComp
Text Label 7550 1250 1    50   ~ 0
RES
Text Label 6300 1450 2    50   ~ 0
A0
Text Label 6300 1550 2    50   ~ 0
A1
Text Label 6300 1650 2    50   ~ 0
A2
Text Label 6300 1750 2    50   ~ 0
A3
Text Label 6300 1850 2    50   ~ 0
A4
Text Label 6300 1950 2    50   ~ 0
A5
Text Label 6300 2050 2    50   ~ 0
A6
Text Label 6300 2150 2    50   ~ 0
A7
Text Label 6300 2250 2    50   ~ 0
A8
Text Label 6300 2350 2    50   ~ 0
A9
Text Label 6300 2450 2    50   ~ 0
A10
Text Label 6300 2550 2    50   ~ 0
A11
Text Label 6300 2650 2    50   ~ 0
A12
Text Label 6300 2750 2    50   ~ 0
A13
Text Label 6300 2850 2    50   ~ 0
A14
Text Label 6300 2950 2    50   ~ 0
A15
Text Label 1300 6950 2    50   ~ 0
A0
Text Label 1300 7050 2    50   ~ 0
A1
Text Label 1300 7150 2    50   ~ 0
A2
Text Label 1300 7250 2    50   ~ 0
A3
Text Label 1300 7350 2    50   ~ 0
A4
Text Label 1300 7450 2    50   ~ 0
A5
Text Label 1300 7550 2    50   ~ 0
A6
Text Label 1300 7650 2    50   ~ 0
A7
Text Label 1300 7750 2    50   ~ 0
A8
Text Label 1300 7850 2    50   ~ 0
A9
Text Label 1300 7950 2    50   ~ 0
A10
Text Label 1300 8050 2    50   ~ 0
A11
Text Label 1300 8150 2    50   ~ 0
A12
Text Label 1300 8250 2    50   ~ 0
A13
Text Label 1300 8350 2    50   ~ 0
A14
$Comp
L power:GND #PWR07
U 1 1 60676E4E
P 1300 8600
F 0 "#PWR07" H 1300 8350 50  0001 C CNN
F 1 "GND" H 1305 8427 50  0000 C CNN
F 2 "" H 1300 8600 50  0001 C CNN
F 3 "" H 1300 8600 50  0001 C CNN
	1    1300 8600
	1    0    0    -1  
$EndComp
Text Label 8150 1550 0    50   ~ 0
D0
Text Label 8150 1650 0    50   ~ 0
D1
Text Label 8150 1750 0    50   ~ 0
D2
Text Label 8150 1850 0    50   ~ 0
D3
Text Label 8150 1950 0    50   ~ 0
D4
Text Label 8150 2050 0    50   ~ 0
D5
Text Label 8150 2150 0    50   ~ 0
D6
Text Label 8150 2250 0    50   ~ 0
D7
Text Label 2300 7050 0    50   ~ 0
D0
Text Label 2300 7150 0    50   ~ 0
D1
Text Label 2300 7250 0    50   ~ 0
D2
Text Label 2300 7350 0    50   ~ 0
D3
Text Label 2300 7450 0    50   ~ 0
D4
Text Label 2300 7550 0    50   ~ 0
D5
Text Label 2300 7650 0    50   ~ 0
D6
Text Label 2300 7750 0    50   ~ 0
D7
$Comp
L 74xx:74HC00 U3
U 5 1 606794CC
P 4900 5200
F 0 "U3" H 5130 5246 50  0000 L CNN
F 1 "74HC00" H 5130 5155 50  0000 L CNN
F 2 "" H 4900 5200 50  0001 C CNN
F 3 "http://www.ti.com/lit/gpn/sn74hc00" H 4900 5200 50  0001 C CNN
	5    4900 5200
	1    0    0    -1  
$EndComp
$Comp
L power:GND #PWR012
U 1 1 6067963E
P 4900 5700
F 0 "#PWR012" H 4900 5450 50  0001 C CNN
F 1 "GND" H 4905 5527 50  0000 C CNN
F 2 "" H 4900 5700 50  0001 C CNN
F 3 "" H 4900 5700 50  0001 C CNN
	1    4900 5700
	1    0    0    -1  
$EndComp
$Comp
L Device:C_Small C6
U 1 1 606797BC
P 4150 6650
F 0 "C6" V 4000 6750 50  0000 C CNN
F 1 "0.1uF" V 4100 6800 50  0000 C CNN
F 2 "" H 4150 6650 50  0001 C CNN
F 3 "~" H 4150 6650 50  0001 C CNN
	1    4150 6650
	0    1    1    0   
$EndComp
$Comp
L power:GND #PWR019
U 1 1 606797C3
P 4250 6650
F 0 "#PWR019" H 4250 6400 50  0001 C CNN
F 1 "GND" H 4255 6477 50  0000 C CNN
F 2 "" H 4250 6650 50  0001 C CNN
F 3 "" H 4250 6650 50  0001 C CNN
	1    4250 6650
	1    0    0    -1  
$EndComp
Wire Wire Line
	4050 6600 4050 6650
Connection ~ 4050 6650
Wire Wire Line
	4050 6650 4050 6750
$Comp
L Device:C_Small C4
U 1 1 60679AF9
P 5000 4600
F 0 "C4" V 4850 4700 50  0000 C CNN
F 1 "0.1uF" V 4950 4750 50  0000 C CNN
F 2 "" H 5000 4600 50  0001 C CNN
F 3 "~" H 5000 4600 50  0001 C CNN
	1    5000 4600
	0    1    1    0   
$EndComp
$Comp
L power:GND #PWR013
U 1 1 60679B00
P 5100 4600
F 0 "#PWR013" H 5100 4350 50  0001 C CNN
F 1 "GND" H 5105 4427 50  0000 C CNN
F 2 "" H 5100 4600 50  0001 C CNN
F 3 "" H 5100 4600 50  0001 C CNN
	1    5100 4600
	1    0    0    -1  
$EndComp
Wire Wire Line
	4900 4550 4900 4600
Connection ~ 4900 4600
Wire Wire Line
	4900 4600 4900 4700
NoConn ~ 8150 2400
NoConn ~ 8150 2650
NoConn ~ 8150 2750
NoConn ~ 7650 3150
Text Label 8150 2500 0    50   ~ 0
RW
Text Label 7550 3150 3    50   ~ 0
MPUE
$Comp
L 74xx:74HC00 U3
U 1 1 6067A765
P 1400 3950
F 0 "U3" H 1400 4275 50  0000 C CNN
F 1 "74HC00" H 1400 4184 50  0000 C CNN
F 2 "" H 1400 3950 50  0001 C CNN
F 3 "http://www.ti.com/lit/gpn/sn74hc00" H 1400 3950 50  0001 C CNN
	1    1400 3950
	1    0    0    -1  
$EndComp
$Comp
L 74xx:74HC00 U3
U 2 1 6067A7D4
P 1600 3300
F 0 "U3" H 1600 3625 50  0000 C CNN
F 1 "74HC00" H 1600 3534 50  0000 C CNN
F 2 "" H 1600 3300 50  0001 C CNN
F 3 "http://www.ti.com/lit/gpn/sn74hc00" H 1600 3300 50  0001 C CNN
	2    1600 3300
	1    0    0    -1  
$EndComp
$Comp
L 74xx:74HC00 U3
U 4 1 6067A87A
P 2350 3400
F 0 "U3" H 2350 3725 50  0000 C CNN
F 1 "74HC00" H 2350 3634 50  0000 C CNN
F 2 "" H 2350 3400 50  0001 C CNN
F 3 "http://www.ti.com/lit/gpn/sn74hc00" H 2350 3400 50  0001 C CNN
	4    2350 3400
	1    0    0    -1  
$EndComp
Wire Wire Line
	1300 3200 1300 3400
Wire Wire Line
	2050 3300 1900 3300
Text Label 1000 3200 2    50   ~ 0
RW
Wire Wire Line
	1000 3200 1100 3200
Connection ~ 1300 3200
Wire Wire Line
	1100 3850 1100 3200
Connection ~ 1100 3200
Wire Wire Line
	1100 3200 1300 3200
Text Label 850  3650 2    50   ~ 0
E
Wire Wire Line
	850  3650 850  4050
Wire Wire Line
	850  4050 1100 4050
Wire Wire Line
	850  3650 2050 3650
Wire Wire Line
	2050 3650 2050 3500
Text Label 2650 3400 0    50   ~ 0
WE
Text Label 1700 3950 0    50   ~ 0
OE
Text Label 3600 3700 0    50   ~ 0
RAMCS
$Comp
L Device:R_US R2
U 1 1 6067CCF3
P 7750 1100
F 0 "R2" H 7682 1054 50  0000 R CNN
F 1 "10K" H 7682 1145 50  0000 R CNN
F 2 "" V 7790 1090 50  0001 C CNN
F 3 "~" H 7750 1100 50  0001 C CNN
	1    7750 1100
	-1   0    0    1   
$EndComp
Wire Wire Line
	7750 950  7650 950 
Wire Wire Line
	7650 1250 7650 950 
Wire Wire Line
	7750 1250 8150 1250
$Comp
L Connector_Generic:Conn_02x20_Odd_Even J1
U 1 1 6067E7E2
P 2700 2200
F 0 "J1" V 2704 1113 50  0000 R CNN
F 1 "Program connector" V 2795 1113 50  0000 R CNN
F 2 "" H 2700 2200 50  0001 C CNN
F 3 "~" H 2700 2200 50  0001 C CNN
	1    2700 2200
	0    1    1    0   
$EndComp
NoConn ~ 2700 2500
Text Label 1700 2500 3    50   ~ 0
A0
Text Label 1800 2500 3    50   ~ 0
A1
Text Label 1900 2500 3    50   ~ 0
A2
Text Label 2000 2500 3    50   ~ 0
A3
Text Label 2100 2500 3    50   ~ 0
A4
Text Label 2200 2500 3    50   ~ 0
A5
Text Label 2300 2500 3    50   ~ 0
A6
Text Label 2400 2500 3    50   ~ 0
A7
Text Label 2500 2500 3    50   ~ 0
A8
Text Label 2600 2500 3    50   ~ 0
A9
Text Label 2800 2500 3    50   ~ 0
A10
Text Label 2900 2500 3    50   ~ 0
A11
Text Label 3000 2500 3    50   ~ 0
A12
Text Label 3100 2500 3    50   ~ 0
A13
Text Label 3200 2500 3    50   ~ 0
A14
Text Label 3300 2500 3    50   ~ 0
A15
$Comp
L power:GND #PWR020
U 1 1 606810FF
P 3600 2000
F 0 "#PWR020" H 3600 1750 50  0001 C CNN
F 1 "GND" H 3605 1827 50  0000 C CNN
F 2 "" H 3600 2000 50  0001 C CNN
F 3 "" H 3600 2000 50  0001 C CNN
	1    3600 2000
	-1   0    0    1   
$EndComp
Text Label 2400 2000 1    50   ~ 0
D0
Text Label 2300 2000 1    50   ~ 0
D1
Text Label 2200 2000 1    50   ~ 0
D2
Text Label 2100 2000 1    50   ~ 0
D3
Text Label 2000 2000 1    50   ~ 0
D4
Text Label 1900 2000 1    50   ~ 0
D5
Text Label 1800 2000 1    50   ~ 0
D6
Text Label 1700 2000 1    50   ~ 0
D7
Text Label 2500 2000 1    50   ~ 0
RW
Text Label 2600 2000 1    50   ~ 0
PGME
$Comp
L Jumper:Jumper_3_Bridged12 JP2
U 1 1 60682DE8
P 1650 900
F 0 "JP2" H 1650 1012 50  0000 C CNN
F 1 "Program->" H 1650 1013 50  0001 C CNN
F 2 "" H 1650 900 50  0001 C CNN
F 3 "~" H 1650 900 50  0001 C CNN
	1    1650 900 
	1    0    0    -1  
$EndComp
Text Label 1650 1050 3    50   ~ 0
E
Text Label 1400 900  2    50   ~ 0
MPUE
Text Label 1900 900  0    50   ~ 0
PGME
$Comp
L 74xx:74HC00 U3
U 3 1 60683EF4
P 3400 3400
F 0 "U3" H 3400 3725 50  0000 C CNN
F 1 "74HC00" H 3400 3634 50  0000 C CNN
F 2 "" H 3400 3400 50  0001 C CNN
F 3 "http://www.ti.com/lit/gpn/sn74hc00" H 3400 3400 50  0001 C CNN
	3    3400 3400
	1    0    0    -1  
$EndComp
Text Label 3100 3300 2    50   ~ 0
A14
Text Label 3100 3500 2    50   ~ 0
A15
Text Label 3700 3400 0    50   ~ 0
ROMCS
$Comp
L Switch:SW_Push SW1
U 1 1 6068516D
P 8900 1750
F 0 "SW1" H 8750 1850 50  0000 C CNN
F 1 "Reset" H 8900 1944 50  0001 C CNN
F 2 "" H 8900 1950 50  0001 C CNN
F 3 "~" H 8900 1950 50  0001 C CNN
	1    8900 1750
	1    0    0    -1  
$EndComp
$Comp
L Device:R_US R3
U 1 1 606856FE
P 9100 1600
F 0 "R3" H 9032 1554 50  0000 R CNN
F 1 "10K" H 9032 1645 50  0000 R CNN
F 2 "" V 9140 1590 50  0001 C CNN
F 3 "~" H 9100 1600 50  0001 C CNN
	1    9100 1600
	-1   0    0    1   
$EndComp
$Comp
L power:GND #PWR016
U 1 1 60685D22
P 8700 2050
F 0 "#PWR016" H 8700 1800 50  0001 C CNN
F 1 "GND" H 8705 1877 50  0000 C CNN
F 2 "" H 8700 2050 50  0001 C CNN
F 3 "" H 8700 2050 50  0001 C CNN
	1    8700 2050
	1    0    0    -1  
$EndComp
$Comp
L Device:CP1 C5
U 1 1 60685DE5
P 8850 1950
F 0 "C5" V 8900 2050 50  0000 C CNN
F 1 "100µF" V 9000 2000 50  0000 C CNN
F 2 "" H 8850 1950 50  0001 C CNN
F 3 "~" H 8850 1950 50  0001 C CNN
	1    8850 1950
	0    1    1    0   
$EndComp
Wire Wire Line
	8700 2050 8700 1950
Connection ~ 8700 1950
Wire Wire Line
	8700 1950 8700 1750
Wire Wire Line
	9000 1950 9100 1950
Wire Wire Line
	9100 1950 9100 1750
Connection ~ 9100 1750
Text Label 9100 1850 0    50   ~ 0
RES
Text Label 8150 1250 0    50   ~ 0
BREQ
$Comp
L Device:Jumper_NO_Small JP3
U 1 1 606885C4
P 2700 900
F 0 "JP3" H 2700 993 50  0000 C CNN
F 1 "Program" H 2700 994 50  0001 C CNN
F 2 "" H 2700 900 50  0001 C CNN
F 3 "~" H 2700 900 50  0001 C CNN
	1    2700 900 
	1    0    0    -1  
$EndComp
$Comp
L power:GND #PWR031
U 1 1 606885CB
P 2800 900
F 0 "#PWR031" H 2800 650 50  0001 C CNN
F 1 "GND" H 2805 727 50  0000 C CNN
F 2 "" H 2800 900 50  0001 C CNN
F 3 "" H 2800 900 50  0001 C CNN
	1    2800 900 
	1    0    0    -1  
$EndComp
Text Label 2600 900  2    50   ~ 0
BREQ
Text Notes 3350 6100 2    59   ~ 0
Memory decoding
Wire Notes Line
	750  2700 4050 2700
Wire Notes Line
	4050 2700 4050 650 
Wire Notes Line
	4050 650  750  650 
Wire Notes Line
	750  650  750  2700
Text Notes 1350 2650 2    59   ~ 0
Programming
Wire Notes Line
	5650 650  9400 650 
Wire Notes Line
	9400 650  9400 3950
Wire Notes Line
	9400 3950 5650 3950
Wire Notes Line
	5650 3950 5650 650 
Text Notes 9200 3850 2    59   ~ 0
MPU
$Comp
L Device:C_Small C9
U 1 1 606757D4
P 3300 4250
F 0 "C9" V 3150 4350 50  0000 C CNN
F 1 "0.1uF" V 3250 4400 50  0000 C CNN
F 2 "" H 3300 4250 50  0001 C CNN
F 3 "~" H 3300 4250 50  0001 C CNN
	1    3300 4250
	0    1    1    0   
$EndComp
$Comp
L power:GND #PWR028
U 1 1 606757DB
P 3400 4250
F 0 "#PWR028" H 3400 4000 50  0001 C CNN
F 1 "GND" H 3405 4077 50  0000 C CNN
F 2 "" H 3400 4250 50  0001 C CNN
F 3 "" H 3400 4250 50  0001 C CNN
	1    3400 4250
	1    0    0    -1  
$EndComp
Connection ~ 3200 4250
Wire Wire Line
	3200 4250 3200 4300
$Comp
L power:GND #PWR027
U 1 1 60675EF1
P 3200 5600
F 0 "#PWR027" H 3200 5350 50  0001 C CNN
F 1 "GND" H 3205 5427 50  0000 C CNN
F 2 "" H 3200 5600 50  0001 C CNN
F 3 "" H 3200 5600 50  0001 C CNN
	1    3200 5600
	1    0    0    -1  
$EndComp
$Comp
L 74xx:74HC00 U4
U 5 1 60678057
P 4650 3900
F 0 "U4" H 4880 3946 50  0000 L CNN
F 1 "74HC00" H 4880 3855 50  0000 L CNN
F 2 "" H 4650 3900 50  0001 C CNN
F 3 "http://www.ti.com/lit/gpn/sn74hc00" H 4650 3900 50  0001 C CNN
	5    4650 3900
	1    0    0    -1  
$EndComp
$Comp
L power:GND #PWR022
U 1 1 6067805E
P 4650 4400
F 0 "#PWR022" H 4650 4150 50  0001 C CNN
F 1 "GND" H 4655 4227 50  0000 C CNN
F 2 "" H 4650 4400 50  0001 C CNN
F 3 "" H 4650 4400 50  0001 C CNN
	1    4650 4400
	1    0    0    -1  
$EndComp
$Comp
L Device:C_Small C7
U 1 1 60678064
P 4750 3300
F 0 "C7" V 4600 3400 50  0000 C CNN
F 1 "0.1uF" V 4700 3450 50  0000 C CNN
F 2 "" H 4750 3300 50  0001 C CNN
F 3 "~" H 4750 3300 50  0001 C CNN
	1    4750 3300
	0    1    1    0   
$EndComp
$Comp
L power:GND #PWR024
U 1 1 6067806B
P 4850 3300
F 0 "#PWR024" H 4850 3050 50  0001 C CNN
F 1 "GND" H 4855 3127 50  0000 C CNN
F 2 "" H 4850 3300 50  0001 C CNN
F 3 "" H 4850 3300 50  0001 C CNN
	1    4850 3300
	1    0    0    -1  
$EndComp
Wire Wire Line
	4650 3250 4650 3300
Connection ~ 4650 3300
Wire Wire Line
	4650 3300 4650 3400
$Comp
L 74xx:74HC00 U4
U 1 1 6067E482
P 1350 5100
F 0 "U4" H 1350 5425 50  0000 C CNN
F 1 "74HC00" H 1350 5334 50  0000 C CNN
F 2 "" H 1350 5100 50  0001 C CNN
F 3 "http://www.ti.com/lit/gpn/sn74hc00" H 1350 5100 50  0001 C CNN
	1    1350 5100
	1    0    0    -1  
$EndComp
$Comp
L 74xx:74HC00 U4
U 2 1 6067E64F
P 1950 5200
F 0 "U4" H 1950 5525 50  0000 C CNN
F 1 "74HC00" H 1950 5434 50  0000 C CNN
F 2 "" H 1950 5200 50  0001 C CNN
F 3 "http://www.ti.com/lit/gpn/sn74hc00" H 1950 5200 50  0001 C CNN
	2    1950 5200
	1    0    0    -1  
$EndComp
Wire Wire Line
	1050 5000 1050 5200
Wire Wire Line
	1650 5300 1050 5300
Text Label 1050 5000 2    50   ~ 0
A14
Text Label 1050 5300 2    50   ~ 0
A15
Text Label 2700 4700 2    50   ~ 0
A12
Text Label 2700 4800 2    50   ~ 0
A13
Wire Wire Line
	3100 3500 3100 3700
Wire Wire Line
	3100 3700 3600 3700
Text Notes 4000 3800 2    50   ~ 0
0000-7FFF\n
Text Notes 2450 5400 2    50   ~ 0
8000-BFFF
Wire Notes Line
	700  9100 3000 9100
Wire Notes Line
	3000 9100 3000 6350
Wire Notes Line
	3000 6350 700  6350
Wire Notes Line
	700  6350 700  9100
Text Notes 2950 9050 2    59   ~ 0
32KB\nSRAM
$Comp
L 6309:R65C51 U6
U 1 1 60695207
P 6500 5650
F 0 "U6" H 6500 5750 39  0000 C CNN
F 1 "R65C51" H 6500 5650 39  0000 C CNN
F 2 "" H 6400 5450 39  0001 C CNN
F 3 "" H 6400 5450 39  0001 C CNN
	1    6500 5650
	1    0    0    -1  
$EndComp
Text Label 5950 5050 2    39   ~ 0
D0
Text Label 5950 5150 2    39   ~ 0
D1
Text Label 5950 5250 2    39   ~ 0
D2
Text Label 5950 5350 2    39   ~ 0
D3
Text Label 5950 5450 2    39   ~ 0
D4
Text Label 5950 5550 2    39   ~ 0
D5
Text Label 5950 5650 2    39   ~ 0
D6
Text Label 5950 5750 2    39   ~ 0
D7
Text Label 5950 6000 2    39   ~ 0
ACIACS
$Comp
L Device:C_Small C10
U 1 1 6069A4AC
P 6150 4700
F 0 "C10" V 6000 4800 50  0000 C CNN
F 1 "0.1uF" V 6100 4850 50  0000 C CNN
F 2 "" H 6150 4700 50  0001 C CNN
F 3 "~" H 6150 4700 50  0001 C CNN
	1    6150 4700
	0    -1   1    0   
$EndComp
$Comp
L power:GND #PWR033
U 1 1 6069A4B3
P 6050 4700
F 0 "#PWR033" H 6050 4450 50  0001 C CNN
F 1 "GND" H 6055 4527 50  0000 C CNN
F 2 "" H 6050 4700 50  0001 C CNN
F 3 "" H 6050 4700 50  0001 C CNN
	1    6050 4700
	-1   0    0    -1  
$EndComp
Wire Wire Line
	6250 4650 6250 4700
Connection ~ 6250 4700
Wire Wire Line
	6250 4700 6250 4800
$Comp
L power:GND #PWR035
U 1 1 6069C769
P 6500 6400
F 0 "#PWR035" H 6500 6150 50  0001 C CNN
F 1 "GND" H 6505 6227 50  0000 C CNN
F 2 "" H 6500 6400 50  0001 C CNN
F 3 "" H 6500 6400 50  0001 C CNN
	1    6500 6400
	-1   0    0    -1  
$EndComp
$Comp
L Device:Crystal Y2
U 1 1 6069D726
P 7650 6000
F 0 "Y2" H 7650 5750 50  0000 C CNN
F 1 "1.8432MHz" H 7650 5850 50  0000 C CNN
F 2 "" H 7650 6000 50  0001 C CNN
F 3 "~" H 7650 6000 50  0001 C CNN
	1    7650 6000
	0    1    1    0   
$EndComp
Wire Wire Line
	7350 6150 7650 6150
Wire Wire Line
	7650 5850 7350 5850
$Comp
L Device:C_Small C11
U 1 1 6069D72F
P 7750 5850
F 0 "C11" H 7842 5896 50  0000 L CNN
F 1 "27pF" H 7842 5805 50  0000 L CNN
F 2 "" H 7750 5850 50  0001 C CNN
F 3 "~" H 7750 5850 50  0001 C CNN
	1    7750 5850
	0    -1   -1   0   
$EndComp
Connection ~ 7650 5850
$Comp
L Device:C_Small C12
U 1 1 6069D737
P 7750 6150
F 0 "C12" H 7550 6200 50  0000 L CNN
F 1 "27pF" H 7500 6100 50  0000 L CNN
F 2 "" H 7750 6150 50  0001 C CNN
F 3 "~" H 7750 6150 50  0001 C CNN
	1    7750 6150
	0    -1   -1   0   
$EndComp
Connection ~ 7650 6150
$Comp
L power:GND #PWR038
U 1 1 6069D73F
P 7850 6150
F 0 "#PWR038" H 7850 5900 50  0001 C CNN
F 1 "GND" H 7855 5977 50  0000 C CNN
F 2 "" H 7850 6150 50  0001 C CNN
F 3 "" H 7850 6150 50  0001 C CNN
	1    7850 6150
	0    -1   -1   0   
$EndComp
$Comp
L power:GND #PWR037
U 1 1 6069D745
P 7850 5850
F 0 "#PWR037" H 7850 5600 50  0001 C CNN
F 1 "GND" H 7855 5677 50  0000 C CNN
F 2 "" H 7850 5850 50  0001 C CNN
F 3 "" H 7850 5850 50  0001 C CNN
	1    7850 5850
	0    -1   -1   0   
$EndComp
Wire Wire Line
	7050 5950 7350 5950
Wire Wire Line
	7350 5950 7350 5850
Wire Wire Line
	7050 6050 7350 6050
Wire Wire Line
	7350 6050 7350 6150
Text Label 6700 4800 1    39   ~ 0
RW
Text Label 6600 4800 1    39   ~ 0
E
Text Label 6450 4800 1    39   ~ 0
RES
Text Label 5950 6150 2    39   ~ 0
A0
Text Label 5950 6250 2    39   ~ 0
A1
$Comp
L Connector:Conn_01x06_Male J3
U 1 1 606A2EA8
P 7900 5200
F 0 "J3" H 7873 5080 50  0000 R CNN
F 1 "Conn_01x06_Male" H 7873 5171 50  0001 R CNN
F 2 "" H 7900 5200 50  0001 C CNN
F 3 "~" H 7900 5200 50  0001 C CNN
	1    7900 5200
	-1   0    0    1   
$EndComp
$Comp
L power:GND #PWR036
U 1 1 606A4B9F
P 7700 5400
F 0 "#PWR036" H 7700 5150 50  0001 C CNN
F 1 "GND" H 7705 5227 50  0000 C CNN
F 2 "" H 7700 5400 50  0001 C CNN
F 3 "" H 7700 5400 50  0001 C CNN
	1    7700 5400
	-1   0    0    -1  
$EndComp
Text Notes 7950 5500 2    39   ~ 0
Black
Text Notes 7950 4850 2    39   ~ 0
Green
Wire Notes Line
	5650 4250 5650 6650
Wire Notes Line
	8350 6650 8350 4250
Wire Notes Line
	8350 4250 5650 4250
Wire Wire Line
	7050 5000 7700 5000
Wire Wire Line
	7050 5100 7700 5100
Text Notes 7800 6600 0    50   ~ 0
ACIA
NoConn ~ 7050 5550
NoConn ~ 7050 5650
NoConn ~ 7050 6200
NoConn ~ 7050 5800
Wire Wire Line
	7050 5250 7050 5350
Connection ~ 7050 5350
Wire Wire Line
	7050 5350 7050 5450
NoConn ~ 7700 4900
NoConn ~ 7700 5200
NoConn ~ 7700 5300
$Comp
L power:GND #PWR0101
U 1 1 606A5E77
P 7050 5350
F 0 "#PWR0101" H 7050 5100 50  0001 C CNN
F 1 "GND" H 7055 5177 50  0000 C CNN
F 2 "" H 7050 5350 50  0001 C CNN
F 3 "" H 7050 5350 50  0001 C CNN
	1    7050 5350
	0    -1   1    0   
$EndComp
Wire Notes Line
	5500 2900 5500 6150
Wire Notes Line
	700  6150 700  2900
Text Notes 4100 3500 2    50   ~ 0
C000-FFFF
Text Label 2700 4600 2    50   ~ 0
A11
$Comp
L power:GND #PWR0103
U 1 1 60789E4E
P 2700 5300
F 0 "#PWR0103" H 2700 5050 50  0001 C CNN
F 1 "GND" H 2705 5127 50  0000 C CNN
F 2 "" H 2700 5300 50  0001 C CNN
F 3 "" H 2700 5300 50  0001 C CNN
	1    2700 5300
	1    0    0    -1  
$EndComp
Wire Wire Line
	2250 5200 2700 5200
Text Label 3700 5300 0    50   ~ 0
ACIACS
Text Label 3700 4600 0    50   ~ 0
VIACS
$Comp
L 6309:R65C22 U7
U 1 1 6078E0C5
P 6100 8200
F 0 "U7" H 5700 9400 50  0000 C CNN
F 1 "R65C22" H 5700 9300 50  0000 C CNN
F 2 "" H 6350 9550 50  0001 C CNN
F 3 "" H 6350 9550 50  0001 C CNN
	1    6100 8200
	1    0    0    -1  
$EndComp
Text Label 5500 7650 2    50   ~ 0
D0
Text Label 5500 7750 2    50   ~ 0
D1
Text Label 5500 7850 2    50   ~ 0
D2
Text Label 5500 7950 2    50   ~ 0
D3
Text Label 5500 8050 2    50   ~ 0
D4
Text Label 5500 8150 2    50   ~ 0
D5
Text Label 5500 8250 2    50   ~ 0
D6
Text Label 5500 8350 2    50   ~ 0
D7
Text Label 5500 8500 2    50   ~ 0
A0
Text Label 5500 8600 2    50   ~ 0
A1
Text Label 5500 8700 2    50   ~ 0
A2
Text Label 5500 8800 2    50   ~ 0
A3
Text Label 5500 9050 2    50   ~ 0
VIACS
$Comp
L Device:C_Small C13
U 1 1 607908CE
P 6200 6950
F 0 "C13" V 6050 7050 50  0000 C CNN
F 1 "0.1uF" V 6150 7100 50  0000 C CNN
F 2 "" H 6200 6950 50  0001 C CNN
F 3 "~" H 6200 6950 50  0001 C CNN
	1    6200 6950
	0    1    1    0   
$EndComp
$Comp
L power:GND #PWR0104
U 1 1 607908D4
P 6300 6950
F 0 "#PWR0104" H 6300 6700 50  0001 C CNN
F 1 "GND" H 6305 6777 50  0000 C CNN
F 2 "" H 6300 6950 50  0001 C CNN
F 3 "" H 6300 6950 50  0001 C CNN
	1    6300 6950
	1    0    0    -1  
$EndComp
Connection ~ 6100 6950
Wire Wire Line
	6100 6950 6100 7050
Text Label 5500 7300 2    50   ~ 0
E
Text Label 5500 7400 2    50   ~ 0
RW
Text Label 5500 7500 2    50   ~ 0
RES
Text Label 5100 9200 2    50   ~ 0
NMI
$Comp
L Device:R_US R5
U 1 1 6079519D
P 5200 9050
F 0 "R5" H 5050 9150 50  0000 L CNN
F 1 "10K" H 5000 9050 50  0000 L CNN
F 2 "" V 5240 9040 50  0001 C CNN
F 3 "~" H 5200 9050 50  0001 C CNN
	1    5200 9050
	1    0    0    -1  
$EndComp
$Comp
L power:+5V #PWR0105
U 1 1 60795CC7
P 5200 8900
F 0 "#PWR0105" H 5200 8750 50  0001 C CNN
F 1 "+5V" H 5215 9073 50  0000 C CNN
F 2 "" H 5200 8900 50  0001 C CNN
F 3 "" H 5200 8900 50  0001 C CNN
	1    5200 8900
	1    0    0    -1  
$EndComp
$Comp
L power:+5V #PWR0106
U 1 1 60796417
P 6100 6950
F 0 "#PWR0106" H 6100 6800 50  0001 C CNN
F 1 "+5V" H 6115 7123 50  0000 C CNN
F 2 "" H 6100 6950 50  0001 C CNN
F 3 "" H 6100 6950 50  0001 C CNN
	1    6100 6950
	1    0    0    -1  
$EndComp
$Comp
L power:+5V #PWR0107
U 1 1 6079765A
P 4050 6600
F 0 "#PWR0107" H 4050 6450 50  0001 C CNN
F 1 "+5V" H 4065 6773 50  0000 C CNN
F 2 "" H 4050 6600 50  0001 C CNN
F 3 "" H 4050 6600 50  0001 C CNN
	1    4050 6600
	1    0    0    -1  
$EndComp
$Comp
L power:+5V #PWR0108
U 1 1 60798927
P 3200 4250
F 0 "#PWR0108" H 3200 4100 50  0001 C CNN
F 1 "+5V" H 3215 4423 50  0000 C CNN
F 2 "" H 3200 4250 50  0001 C CNN
F 3 "" H 3200 4250 50  0001 C CNN
	1    3200 4250
	1    0    0    -1  
$EndComp
$Comp
L power:+5V #PWR0109
U 1 1 60799C14
P 4900 4550
F 0 "#PWR0109" H 4900 4400 50  0001 C CNN
F 1 "+5V" H 4915 4723 50  0000 C CNN
F 2 "" H 4900 4550 50  0001 C CNN
F 3 "" H 4900 4550 50  0001 C CNN
	1    4900 4550
	1    0    0    -1  
$EndComp
$Comp
L power:+5V #PWR0110
U 1 1 6079AD31
P 4650 3250
F 0 "#PWR0110" H 4650 3100 50  0001 C CNN
F 1 "+5V" H 4665 3423 50  0000 C CNN
F 2 "" H 4650 3250 50  0001 C CNN
F 3 "" H 4650 3250 50  0001 C CNN
	1    4650 3250
	1    0    0    -1  
$EndComp
$Comp
L power:+5V #PWR0111
U 1 1 6079BF9F
P 6250 4650
F 0 "#PWR0111" H 6250 4500 50  0001 C CNN
F 1 "+5V" H 6265 4823 50  0000 C CNN
F 2 "" H 6250 4650 50  0001 C CNN
F 3 "" H 6250 4650 50  0001 C CNN
	1    6250 4650
	1    0    0    -1  
$EndComp
$Comp
L power:+5V #PWR0112
U 1 1 6079D52B
P 5950 5900
F 0 "#PWR0112" H 5950 5750 50  0001 C CNN
F 1 "+5V" V 5965 6028 50  0000 L CNN
F 2 "" H 5950 5900 50  0001 C CNN
F 3 "" H 5950 5900 50  0001 C CNN
	1    5950 5900
	0    -1   -1   0   
$EndComp
$Comp
L power:+5V #PWR0113
U 1 1 6079E947
P 9100 1450
F 0 "#PWR0113" H 9100 1300 50  0001 C CNN
F 1 "+5V" H 9115 1623 50  0000 C CNN
F 2 "" H 9100 1450 50  0001 C CNN
F 3 "" H 9100 1450 50  0001 C CNN
	1    9100 1450
	1    0    0    -1  
$EndComp
$Comp
L power:+5V #PWR0114
U 1 1 6079FB61
P 7650 950
F 0 "#PWR0114" H 7650 800 50  0001 C CNN
F 1 "+5V" H 7665 1123 50  0000 C CNN
F 2 "" H 7650 950 50  0001 C CNN
F 3 "" H 7650 950 50  0001 C CNN
	1    7650 950 
	1    0    0    -1  
$EndComp
$Comp
L power:+5V #PWR0115
U 1 1 607A0DD1
P 7350 1250
F 0 "#PWR0115" H 7350 1100 50  0001 C CNN
F 1 "+5V" H 7365 1423 50  0000 C CNN
F 2 "" H 7350 1250 50  0001 C CNN
F 3 "" H 7350 1250 50  0001 C CNN
	1    7350 1250
	1    0    0    -1  
$EndComp
$Comp
L power:+5V #PWR0116
U 1 1 607A1F97
P 6800 1100
F 0 "#PWR0116" H 6800 950 50  0001 C CNN
F 1 "+5V" H 6900 1250 50  0000 C CNN
F 2 "" H 6800 1100 50  0001 C CNN
F 3 "" H 6800 1100 50  0001 C CNN
	1    6800 1100
	1    0    0    -1  
$EndComp
$Comp
L power:+5V #PWR0117
U 1 1 607A332B
P 3600 2500
F 0 "#PWR0117" H 3600 2350 50  0001 C CNN
F 1 "+5V" H 3615 2673 50  0000 C CNN
F 2 "" H 3600 2500 50  0001 C CNN
F 3 "" H 3600 2500 50  0001 C CNN
	1    3600 2500
	-1   0    0    1   
$EndComp
NoConn ~ 2700 2000
NoConn ~ 2800 2000
NoConn ~ 2900 2000
NoConn ~ 3000 2000
NoConn ~ 3100 2000
NoConn ~ 3200 2000
NoConn ~ 3300 2000
NoConn ~ 3400 2000
NoConn ~ 3500 2000
NoConn ~ 3500 2500
NoConn ~ 3400 2500
NoConn ~ 3700 5000
NoConn ~ 3700 5100
NoConn ~ 3700 5200
Wire Wire Line
	5100 9200 5200 9200
$Comp
L power:GND #PWR0133
U 1 1 6081640B
P 6100 9450
F 0 "#PWR0133" H 6100 9200 50  0001 C CNN
F 1 "GND" H 6105 9277 50  0000 C CNN
F 2 "" H 6100 9450 50  0001 C CNN
F 3 "" H 6100 9450 50  0001 C CNN
	1    6100 9450
	1    0    0    -1  
$EndComp
$Comp
L power:+5V #PWR0134
U 1 1 6081684A
P 5500 8950
F 0 "#PWR0134" H 5500 8800 50  0001 C CNN
F 1 "+5V" V 5550 9000 50  0000 L CNN
F 2 "" H 5500 8950 50  0001 C CNN
F 3 "" H 5500 8950 50  0001 C CNN
	1    5500 8950
	0    -1   -1   0   
$EndComp
Text Notes 4450 4600 2    50   ~ 0
8000-87FF\n
Text Notes 4450 4700 2    50   ~ 0
8800-8FFF\n
Text Notes 4450 4800 2    50   ~ 0
9000-97FF\n
Text Notes 4450 4900 2    50   ~ 0
9800-9FFF\n
Text Notes 4450 5000 2    50   ~ 0
A000-A7FF\n
Text Notes 4450 5100 2    50   ~ 0
A800-AFFF\n
Text Notes 4450 5200 2    50   ~ 0
B000-B7FF\n
Text Notes 4450 5300 2    50   ~ 0
B800-BFFF\n
Wire Wire Line
	6700 7500 7200 7500
Wire Wire Line
	7200 7600 6700 7600
Wire Wire Line
	6700 7700 7200 7700
Wire Wire Line
	7200 7800 6700 7800
Wire Wire Line
	6700 7900 7200 7900
Wire Wire Line
	7200 8000 6700 8000
Wire Wire Line
	6700 8350 7200 8350
Wire Wire Line
	7200 8450 6700 8450
Wire Wire Line
	6700 8550 7200 8550
Wire Wire Line
	7200 8650 6700 8650
Wire Wire Line
	6700 8750 7200 8750
NoConn ~ 6700 8100
NoConn ~ 6700 8200
NoConn ~ 6700 9050
NoConn ~ 6700 9150
NoConn ~ 6700 9250
$Comp
L power:+5V #PWR0102
U 1 1 607CB778
P 2700 5100
F 0 "#PWR0102" H 2700 4950 50  0001 C CNN
F 1 "+5V" H 2715 5273 50  0000 C CNN
F 2 "" H 2700 5100 50  0001 C CNN
F 3 "" H 2700 5100 50  0001 C CNN
	1    2700 5100
	1    0    0    -1  
$EndComp
Text Label 7150 1250 1    50   ~ 0
NMI
Connection ~ 5200 9200
Wire Wire Line
	5200 9200 5500 9200
Text Notes 8600 9600 2    50   ~ 0
VIA
Wire Notes Line
	4900 9650 4900 6700
$Comp
L 6309:HD6340 U11
U 1 1 6078CFE1
P 2250 13100
F 0 "U11" H 2600 14250 50  0000 C CNN
F 1 "HD6340" H 2500 14150 50  0000 C CNN
F 2 "" H 3100 14550 50  0001 C CNN
F 3 "" H 3100 14550 50  0001 C CNN
	1    2250 13100
	1    0    0    -1  
$EndComp
$Comp
L Device:C_Small C8
U 1 1 6078D8AD
P 2150 11900
F 0 "C8" V 2000 12000 50  0000 C CNN
F 1 "0.1uF" V 2100 12050 50  0000 C CNN
F 2 "" H 2150 11900 50  0001 C CNN
F 3 "~" H 2150 11900 50  0001 C CNN
	1    2150 11900
	0    -1   1    0   
$EndComp
$Comp
L power:GND #PWR010
U 1 1 6078D8B4
P 2050 11900
F 0 "#PWR010" H 2050 11650 50  0001 C CNN
F 1 "GND" H 2055 11727 50  0000 C CNN
F 2 "" H 2050 11900 50  0001 C CNN
F 3 "" H 2050 11900 50  0001 C CNN
	1    2050 11900
	-1   0    0    -1  
$EndComp
Wire Wire Line
	2250 11850 2250 11900
Connection ~ 2250 11900
Wire Wire Line
	2250 11900 2250 12000
$Comp
L power:+5V #PWR011
U 1 1 6078D8BD
P 2250 11850
F 0 "#PWR011" H 2250 11700 50  0001 C CNN
F 1 "+5V" H 2265 12023 50  0000 C CNN
F 2 "" H 2250 11850 50  0001 C CNN
F 3 "" H 2250 11850 50  0001 C CNN
	1    2250 11850
	1    0    0    -1  
$EndComp
$Comp
L power:GND #PWR014
U 1 1 60790547
P 2250 14150
F 0 "#PWR014" H 2250 13900 50  0001 C CNN
F 1 "GND" H 2255 13977 50  0000 C CNN
F 2 "" H 2250 14150 50  0001 C CNN
F 3 "" H 2250 14150 50  0001 C CNN
	1    2250 14150
	-1   0    0    -1  
$EndComp
Text Label 1700 13150 2    50   ~ 0
E
Text Label 1700 13050 2    50   ~ 0
RW
Text Label 1700 13250 2    50   ~ 0
RES
Text Label 1700 12200 2    50   ~ 0
D0
Text Label 1700 12300 2    50   ~ 0
D1
Text Label 1700 12400 2    50   ~ 0
D2
Text Label 1700 12500 2    50   ~ 0
D3
Text Label 1700 12600 2    50   ~ 0
D4
Text Label 1700 12700 2    50   ~ 0
D5
Text Label 1700 12800 2    50   ~ 0
D6
Text Label 1700 12900 2    50   ~ 0
D7
Text Label 1700 13650 2    50   ~ 0
A0
Text Label 1700 13750 2    50   ~ 0
A1
Text Label 1700 13850 2    50   ~ 0
A2
$Comp
L power:+5V #PWR05
U 1 1 60793B35
P 1700 13500
F 0 "#PWR05" H 1700 13350 50  0001 C CNN
F 1 "+5V" V 1750 13550 50  0000 L CNN
F 2 "" H 1700 13500 50  0001 C CNN
F 3 "" H 1700 13500 50  0001 C CNN
	1    1700 13500
	0    -1   -1   0   
$EndComp
Text Label 1700 13400 2    50   ~ 0
PTMCS
Text Label 1400 14000 2    50   ~ 0
IRQ
$Comp
L Device:R_US R8
U 1 1 60794084
P 1450 13850
F 0 "R8" H 1250 13950 50  0000 L CNN
F 1 "10K" H 1250 13850 50  0000 L CNN
F 2 "" V 1490 13840 50  0001 C CNN
F 3 "~" H 1450 13850 50  0001 C CNN
	1    1450 13850
	1    0    0    -1  
$EndComp
$Comp
L power:+5V #PWR01
U 1 1 60794436
P 1450 13700
F 0 "#PWR01" H 1450 13550 50  0001 C CNN
F 1 "+5V" H 1300 13850 50  0000 L CNN
F 2 "" H 1450 13700 50  0001 C CNN
F 3 "" H 1450 13700 50  0001 C CNN
	1    1450 13700
	1    0    0    -1  
$EndComp
Wire Wire Line
	1450 14000 1700 14000
Wire Wire Line
	1400 14000 1450 14000
Connection ~ 1450 14000
Connection ~ 2750 13100
Wire Wire Line
	2750 13100 2750 13200
$Comp
L power:GND #PWR015
U 1 1 6079CAFF
P 2750 13200
F 0 "#PWR015" H 2750 12950 50  0001 C CNN
F 1 "GND" H 2755 13027 50  0000 C CNN
F 2 "" H 2750 13200 50  0001 C CNN
F 3 "" H 2750 13200 50  0001 C CNN
	1    2750 13200
	-1   0    0    -1  
$EndComp
Connection ~ 2750 13200
Wire Wire Line
	2750 12550 2750 12650
Connection ~ 2750 12650
Wire Wire Line
	2750 12650 2750 12750
Connection ~ 2750 12750
Wire Wire Line
	2750 12750 2750 13000
Connection ~ 2750 13000
Wire Wire Line
	2750 13000 2750 13100
NoConn ~ 2750 13600
Text Label 7250 1250 1    50   ~ 0
IRQ
Connection ~ 7750 1250
$Comp
L 6309:HD6309 U1
U 1 1 60675F18
P 6800 2200
F 0 "U1" H 7250 2350 50  0000 C CNN
F 1 "HD6309" H 7250 2150 50  0000 C CNN
F 2 "" H 6800 2200 50  0001 C CNN
F 3 "" H 6800 2200 50  0001 C CNN
	1    6800 2200
	1    0    0    -1  
$EndComp
$Comp
L Connector:AudioPlug3 J4
U 1 1 607AE5F1
P 3700 12200
F 0 "J4" V 3709 12430 50  0000 L CNN
F 1 "AudioPlug3" V 3800 12430 50  0000 L CNN
F 2 "" H 3800 12150 50  0001 C CNN
F 3 "~" H 3800 12150 50  0001 C CNN
	1    3700 12200
	0    1    1    0   
$EndComp
$Comp
L power:GND #PWR017
U 1 1 607AE9FC
P 3800 12800
F 0 "#PWR017" H 3800 12550 50  0001 C CNN
F 1 "GND" H 3805 12627 50  0000 C CNN
F 2 "" H 3800 12800 50  0001 C CNN
F 3 "" H 3800 12800 50  0001 C CNN
	1    3800 12800
	-1   0    0    -1  
$EndComp
$Comp
L 6309:TMS9918A U13
U 1 1 607C9043
P 5600 12500
F 0 "U13" H 5600 13050 50  0000 C CNN
F 1 "TMS9918A" H 5600 12900 50  0000 C CNN
F 2 "" H 5600 12500 50  0001 C CNN
F 3 "" H 5600 12500 50  0001 C CNN
	1    5600 12500
	1    0    0    -1  
$EndComp
$Comp
L 6309:MM5290 U14
U 1 1 607C91A4
P 8500 11000
F 0 "U14" H 8500 10950 50  0000 C CNN
F 1 "MM5290" H 8550 10850 50  0000 C CNN
F 2 "" H 8500 11000 50  0001 C CNN
F 3 "" H 8500 11000 50  0001 C CNN
	1    8500 11000
	1    0    0    -1  
$EndComp
$Comp
L Device:C_Small C23
U 1 1 607CD4DD
P 5500 11100
F 0 "C23" V 5350 11200 50  0000 C CNN
F 1 "0.1uF" V 5450 11250 50  0000 C CNN
F 2 "" H 5500 11100 50  0001 C CNN
F 3 "~" H 5500 11100 50  0001 C CNN
	1    5500 11100
	0    -1   1    0   
$EndComp
$Comp
L power:GND #PWR025
U 1 1 607CD4E4
P 5400 11100
F 0 "#PWR025" H 5400 10850 50  0001 C CNN
F 1 "GND" H 5405 10927 50  0000 C CNN
F 2 "" H 5400 11100 50  0001 C CNN
F 3 "" H 5400 11100 50  0001 C CNN
	1    5400 11100
	-1   0    0    -1  
$EndComp
Wire Wire Line
	5600 11050 5600 11100
Connection ~ 5600 11100
Wire Wire Line
	5600 11100 5600 11200
$Comp
L power:+5V #PWR026
U 1 1 607CD4ED
P 5600 11050
F 0 "#PWR026" H 5600 10900 50  0001 C CNN
F 1 "+5V" H 5615 11223 50  0000 C CNN
F 2 "" H 5600 11050 50  0001 C CNN
F 3 "" H 5600 11050 50  0001 C CNN
	1    5600 11050
	1    0    0    -1  
$EndComp
$Comp
L power:GND #PWR034
U 1 1 607D35C1
P 8450 12400
F 0 "#PWR034" H 8450 12150 50  0001 C CNN
F 1 "GND" H 8550 12300 50  0000 C CNN
F 2 "" H 8450 12400 50  0001 C CNN
F 3 "" H 8450 12400 50  0001 C CNN
	1    8450 12400
	-1   0    0    -1  
$EndComp
$Comp
L power:+5V #PWR041
U 1 1 607D3740
P 8550 10700
F 0 "#PWR041" H 8550 10550 50  0001 C CNN
F 1 "+5V" H 8565 10873 50  0000 C CNN
F 2 "" H 8550 10700 50  0001 C CNN
F 3 "" H 8550 10700 50  0001 C CNN
	1    8550 10700
	1    0    0    -1  
$EndComp
$Comp
L power:+12V #PWR032
U 1 1 607D3EF4
P 8450 10700
F 0 "#PWR032" H 8450 10550 50  0001 C CNN
F 1 "+12V" H 8300 10750 50  0000 C CNN
F 2 "" H 8450 10700 50  0001 C CNN
F 3 "" H 8450 10700 50  0001 C CNN
	1    8450 10700
	1    0    0    -1  
$EndComp
$Comp
L power:-5V #PWR042
U 1 1 607D4232
P 8550 12400
F 0 "#PWR042" H 8550 12500 50  0001 C CNN
F 1 "-5V" H 8450 12500 50  0000 C CNN
F 2 "" H 8550 12400 50  0001 C CNN
F 3 "" H 8550 12400 50  0001 C CNN
	1    8550 12400
	-1   0    0    1   
$EndComp
Text Label 8150 10900 2    50   ~ 0
AD0
Text Label 8150 11000 2    50   ~ 0
AD1
Text Label 8150 11100 2    50   ~ 0
AD2
Text Label 8150 11200 2    50   ~ 0
AD3
Text Label 8150 11300 2    50   ~ 0
AD4
Text Label 8150 11400 2    50   ~ 0
AD5
Text Label 8150 11500 2    50   ~ 0
AD6
Text Label 6200 11700 0    50   ~ 0
AD0
Text Label 6200 11800 0    50   ~ 0
AD1
Text Label 6200 11900 0    50   ~ 0
AD2
Text Label 6200 12000 0    50   ~ 0
AD3
Text Label 6200 12100 0    50   ~ 0
AD4
Text Label 6200 12200 0    50   ~ 0
AD5
Text Label 6200 12300 0    50   ~ 0
AD6
Text Label 6200 12400 0    50   ~ 0
AD7
Text Label 6200 12550 0    50   ~ 0
RD0
Text Label 6200 12650 0    50   ~ 0
RD1
Text Label 6200 12750 0    50   ~ 0
RD2
Text Label 6200 12850 0    50   ~ 0
RD3
Text Label 6200 12950 0    50   ~ 0
RD4
Text Label 6200 13050 0    50   ~ 0
RD5
Text Label 6200 13150 0    50   ~ 0
RD6
Text Label 6200 13250 0    50   ~ 0
RD7
Text Label 6200 13400 0    50   ~ 0
VRW
Text Label 6200 11450 0    50   ~ 0
VRAS
Text Label 6200 11550 0    50   ~ 0
VCAS
Text Label 8150 11900 2    50   ~ 0
VRAS
Text Label 8150 11800 2    50   ~ 0
VCAS
Text Label 8150 11650 2    50   ~ 0
VRW
Text Label 8150 12050 2    50   ~ 0
RD0
Text Label 8150 12150 2    50   ~ 0
AD0
Wire Wire Line
	8150 10900 7750 10900
Wire Wire Line
	8150 11000 7750 11000
Wire Wire Line
	8150 11100 7750 11100
Wire Wire Line
	8150 11200 7750 11200
Wire Wire Line
	8150 11300 7750 11300
Wire Wire Line
	7750 11400 8150 11400
Wire Wire Line
	8150 11500 7750 11500
Wire Wire Line
	7750 11650 8150 11650
Wire Wire Line
	8150 11800 7750 11800
Wire Wire Line
	8150 11900 7750 11900
Wire Wire Line
	8150 12050 7750 12050
Wire Wire Line
	8150 12150 7750 12150
Entry Wire Line
	7650 10800 7750 10900
Entry Wire Line
	7650 10900 7750 11000
Entry Wire Line
	7650 11000 7750 11100
Entry Wire Line
	7650 11100 7750 11200
Entry Wire Line
	7650 11200 7750 11300
Entry Wire Line
	7650 11300 7750 11400
Entry Wire Line
	7650 11400 7750 11500
Entry Wire Line
	7650 11550 7750 11650
Entry Wire Line
	7650 11700 7750 11800
Entry Wire Line
	7650 11800 7750 11900
Entry Wire Line
	7650 11950 7750 12050
Entry Wire Line
	7650 12050 7750 12150
$Comp
L 6309:MM5290 U16
U 1 1 607921B2
P 9800 11000
F 0 "U16" H 9800 10950 50  0000 C CNN
F 1 "MM5290" H 9850 10850 50  0000 C CNN
F 2 "" H 9800 11000 50  0001 C CNN
F 3 "" H 9800 11000 50  0001 C CNN
	1    9800 11000
	1    0    0    -1  
$EndComp
$Comp
L power:GND #PWR046
U 1 1 607921B9
P 9750 12400
F 0 "#PWR046" H 9750 12150 50  0001 C CNN
F 1 "GND" H 9850 12300 50  0000 C CNN
F 2 "" H 9750 12400 50  0001 C CNN
F 3 "" H 9750 12400 50  0001 C CNN
	1    9750 12400
	-1   0    0    -1  
$EndComp
$Comp
L power:+5V #PWR049
U 1 1 607921BF
P 9850 10700
F 0 "#PWR049" H 9850 10550 50  0001 C CNN
F 1 "+5V" H 9865 10873 50  0000 C CNN
F 2 "" H 9850 10700 50  0001 C CNN
F 3 "" H 9850 10700 50  0001 C CNN
	1    9850 10700
	1    0    0    -1  
$EndComp
$Comp
L power:+12V #PWR045
U 1 1 607921C5
P 9750 10700
F 0 "#PWR045" H 9750 10550 50  0001 C CNN
F 1 "+12V" H 9600 10750 50  0000 C CNN
F 2 "" H 9750 10700 50  0001 C CNN
F 3 "" H 9750 10700 50  0001 C CNN
	1    9750 10700
	1    0    0    -1  
$EndComp
$Comp
L power:-5V #PWR050
U 1 1 607921CB
P 9850 12400
F 0 "#PWR050" H 9850 12500 50  0001 C CNN
F 1 "-5V" H 9750 12500 50  0000 C CNN
F 2 "" H 9850 12400 50  0001 C CNN
F 3 "" H 9850 12400 50  0001 C CNN
	1    9850 12400
	-1   0    0    1   
$EndComp
Text Label 9450 10900 2    50   ~ 0
AD0
Text Label 9450 11000 2    50   ~ 0
AD1
Text Label 9450 11100 2    50   ~ 0
AD2
Text Label 9450 11200 2    50   ~ 0
AD3
Text Label 9450 11300 2    50   ~ 0
AD4
Text Label 9450 11400 2    50   ~ 0
AD5
Text Label 9450 11500 2    50   ~ 0
AD6
Text Label 9450 11900 2    50   ~ 0
VRAS
Text Label 9450 11800 2    50   ~ 0
VCAS
Text Label 9450 11650 2    50   ~ 0
VRW
Text Label 9450 12050 2    50   ~ 0
RD1
Text Label 9450 12150 2    50   ~ 0
AD1
Wire Wire Line
	9450 10900 9050 10900
Wire Wire Line
	9450 11000 9050 11000
Wire Wire Line
	9450 11100 9050 11100
Wire Wire Line
	9450 11200 9050 11200
Wire Wire Line
	9450 11300 9050 11300
Wire Wire Line
	9050 11400 9450 11400
Wire Wire Line
	9450 11500 9050 11500
Wire Wire Line
	9050 11650 9450 11650
Wire Wire Line
	9450 11800 9050 11800
Wire Wire Line
	9450 11900 9050 11900
Wire Wire Line
	9450 12050 9050 12050
Wire Wire Line
	9450 12150 9050 12150
Entry Wire Line
	8950 10800 9050 10900
Entry Wire Line
	8950 10900 9050 11000
Entry Wire Line
	8950 11000 9050 11100
Entry Wire Line
	8950 11100 9050 11200
Entry Wire Line
	8950 11200 9050 11300
Entry Wire Line
	8950 11300 9050 11400
Entry Wire Line
	8950 11400 9050 11500
Entry Wire Line
	8950 11550 9050 11650
Entry Wire Line
	8950 11700 9050 11800
Entry Wire Line
	8950 11800 9050 11900
Entry Wire Line
	8950 11950 9050 12050
Entry Wire Line
	8950 12050 9050 12150
$Comp
L 6309:MM5290 U18
U 1 1 607962CE
P 11100 11000
F 0 "U18" H 11100 10950 50  0000 C CNN
F 1 "MM5290" H 11150 10850 50  0000 C CNN
F 2 "" H 11100 11000 50  0001 C CNN
F 3 "" H 11100 11000 50  0001 C CNN
	1    11100 11000
	1    0    0    -1  
$EndComp
$Comp
L power:GND #PWR054
U 1 1 607962D5
P 11050 12400
F 0 "#PWR054" H 11050 12150 50  0001 C CNN
F 1 "GND" H 11150 12300 50  0000 C CNN
F 2 "" H 11050 12400 50  0001 C CNN
F 3 "" H 11050 12400 50  0001 C CNN
	1    11050 12400
	-1   0    0    -1  
$EndComp
$Comp
L power:+5V #PWR057
U 1 1 607962DB
P 11150 10700
F 0 "#PWR057" H 11150 10550 50  0001 C CNN
F 1 "+5V" H 11165 10873 50  0000 C CNN
F 2 "" H 11150 10700 50  0001 C CNN
F 3 "" H 11150 10700 50  0001 C CNN
	1    11150 10700
	1    0    0    -1  
$EndComp
$Comp
L power:+12V #PWR053
U 1 1 607962E1
P 11050 10700
F 0 "#PWR053" H 11050 10550 50  0001 C CNN
F 1 "+12V" H 10900 10750 50  0000 C CNN
F 2 "" H 11050 10700 50  0001 C CNN
F 3 "" H 11050 10700 50  0001 C CNN
	1    11050 10700
	1    0    0    -1  
$EndComp
$Comp
L power:-5V #PWR058
U 1 1 607962E7
P 11150 12400
F 0 "#PWR058" H 11150 12500 50  0001 C CNN
F 1 "-5V" H 11050 12500 50  0000 C CNN
F 2 "" H 11150 12400 50  0001 C CNN
F 3 "" H 11150 12400 50  0001 C CNN
	1    11150 12400
	-1   0    0    1   
$EndComp
Text Label 10750 10900 2    50   ~ 0
AD0
Text Label 10750 11000 2    50   ~ 0
AD1
Text Label 10750 11100 2    50   ~ 0
AD2
Text Label 10750 11200 2    50   ~ 0
AD3
Text Label 10750 11300 2    50   ~ 0
AD4
Text Label 10750 11400 2    50   ~ 0
AD5
Text Label 10750 11500 2    50   ~ 0
AD6
Text Label 10750 11900 2    50   ~ 0
VRAS
Text Label 10750 11800 2    50   ~ 0
VCAS
Text Label 10750 11650 2    50   ~ 0
VRW
Text Label 10750 12050 2    50   ~ 0
RD2
Text Label 10750 12150 2    50   ~ 0
AD2
Wire Wire Line
	10750 10900 10350 10900
Wire Wire Line
	10750 11000 10350 11000
Wire Wire Line
	10750 11100 10350 11100
Wire Wire Line
	10750 11200 10350 11200
Wire Wire Line
	10750 11300 10350 11300
Wire Wire Line
	10350 11400 10750 11400
Wire Wire Line
	10750 11500 10350 11500
Wire Wire Line
	10350 11650 10750 11650
Wire Wire Line
	10750 11800 10350 11800
Wire Wire Line
	10750 11900 10350 11900
Wire Wire Line
	10750 12050 10350 12050
Wire Wire Line
	10750 12150 10350 12150
Entry Wire Line
	10250 10800 10350 10900
Entry Wire Line
	10250 10900 10350 11000
Entry Wire Line
	10250 11000 10350 11100
Entry Wire Line
	10250 11100 10350 11200
Entry Wire Line
	10250 11200 10350 11300
Entry Wire Line
	10250 11300 10350 11400
Entry Wire Line
	10250 11400 10350 11500
Entry Wire Line
	10250 11550 10350 11650
Entry Wire Line
	10250 11700 10350 11800
Entry Wire Line
	10250 11800 10350 11900
Entry Wire Line
	10250 11950 10350 12050
Entry Wire Line
	10250 12050 10350 12150
$Comp
L 6309:MM5290 U20
U 1 1 6079B16B
P 12400 11000
F 0 "U20" H 12400 10950 50  0000 C CNN
F 1 "MM5290" H 12450 10850 50  0000 C CNN
F 2 "" H 12400 11000 50  0001 C CNN
F 3 "" H 12400 11000 50  0001 C CNN
	1    12400 11000
	1    0    0    -1  
$EndComp
$Comp
L power:GND #PWR062
U 1 1 6079B172
P 12350 12400
F 0 "#PWR062" H 12350 12150 50  0001 C CNN
F 1 "GND" H 12450 12300 50  0000 C CNN
F 2 "" H 12350 12400 50  0001 C CNN
F 3 "" H 12350 12400 50  0001 C CNN
	1    12350 12400
	-1   0    0    -1  
$EndComp
$Comp
L power:+5V #PWR065
U 1 1 6079B178
P 12450 10700
F 0 "#PWR065" H 12450 10550 50  0001 C CNN
F 1 "+5V" H 12465 10873 50  0000 C CNN
F 2 "" H 12450 10700 50  0001 C CNN
F 3 "" H 12450 10700 50  0001 C CNN
	1    12450 10700
	1    0    0    -1  
$EndComp
$Comp
L power:+12V #PWR061
U 1 1 6079B17E
P 12350 10700
F 0 "#PWR061" H 12350 10550 50  0001 C CNN
F 1 "+12V" H 12200 10750 50  0000 C CNN
F 2 "" H 12350 10700 50  0001 C CNN
F 3 "" H 12350 10700 50  0001 C CNN
	1    12350 10700
	1    0    0    -1  
$EndComp
$Comp
L power:-5V #PWR066
U 1 1 6079B184
P 12450 12400
F 0 "#PWR066" H 12450 12500 50  0001 C CNN
F 1 "-5V" H 12350 12500 50  0000 C CNN
F 2 "" H 12450 12400 50  0001 C CNN
F 3 "" H 12450 12400 50  0001 C CNN
	1    12450 12400
	-1   0    0    1   
$EndComp
Text Label 12050 10900 2    50   ~ 0
AD0
Text Label 12050 11000 2    50   ~ 0
AD1
Text Label 12050 11100 2    50   ~ 0
AD2
Text Label 12050 11200 2    50   ~ 0
AD3
Text Label 12050 11300 2    50   ~ 0
AD4
Text Label 12050 11400 2    50   ~ 0
AD5
Text Label 12050 11500 2    50   ~ 0
AD6
Text Label 12050 11900 2    50   ~ 0
VRAS
Text Label 12050 11800 2    50   ~ 0
VCAS
Text Label 12050 11650 2    50   ~ 0
VRW
Text Label 12050 12050 2    50   ~ 0
RD3
Text Label 12050 12150 2    50   ~ 0
AD3
Wire Wire Line
	12050 10900 11650 10900
Wire Wire Line
	12050 11000 11650 11000
Wire Wire Line
	12050 11100 11650 11100
Wire Wire Line
	12050 11200 11650 11200
Wire Wire Line
	12050 11300 11650 11300
Wire Wire Line
	11650 11400 12050 11400
Wire Wire Line
	12050 11500 11650 11500
Wire Wire Line
	11650 11650 12050 11650
Wire Wire Line
	12050 11800 11650 11800
Wire Wire Line
	12050 11900 11650 11900
Wire Wire Line
	12050 12050 11650 12050
Wire Wire Line
	12050 12150 11650 12150
Entry Wire Line
	11550 10800 11650 10900
Entry Wire Line
	11550 10900 11650 11000
Entry Wire Line
	11550 11000 11650 11100
Entry Wire Line
	11550 11100 11650 11200
Entry Wire Line
	11550 11200 11650 11300
Entry Wire Line
	11550 11300 11650 11400
Entry Wire Line
	11550 11400 11650 11500
Entry Wire Line
	11550 11550 11650 11650
Entry Wire Line
	11550 11700 11650 11800
Entry Wire Line
	11550 11800 11650 11900
Entry Wire Line
	11550 11950 11650 12050
Entry Wire Line
	11550 12050 11650 12150
Entry Wire Line
	6450 11450 6550 11350
Entry Wire Line
	6450 11550 6550 11450
Entry Wire Line
	6450 11700 6550 11600
Entry Wire Line
	6450 11800 6550 11700
Entry Wire Line
	6450 11900 6550 11800
Entry Wire Line
	6450 12000 6550 11900
Entry Wire Line
	6450 12100 6550 12000
Entry Wire Line
	6450 12200 6550 12100
Entry Wire Line
	6450 12300 6550 12200
Entry Wire Line
	6450 12400 6550 12300
Entry Wire Line
	6450 12550 6550 12450
Entry Wire Line
	6450 12650 6550 12550
Entry Wire Line
	6450 12750 6550 12650
Entry Wire Line
	6450 12850 6550 12750
Entry Wire Line
	6450 12950 6550 12850
Entry Wire Line
	6450 13050 6550 12950
Entry Wire Line
	6450 13150 6550 13050
Entry Wire Line
	6450 13250 6550 13150
Wire Wire Line
	6450 11450 6200 11450
Wire Wire Line
	6200 11550 6450 11550
Wire Wire Line
	6450 11700 6200 11700
Wire Wire Line
	6200 11800 6450 11800
Wire Wire Line
	6450 11900 6200 11900
Wire Wire Line
	6200 12000 6450 12000
Wire Wire Line
	6450 12100 6200 12100
Wire Wire Line
	6200 12200 6450 12200
Wire Wire Line
	6450 12300 6200 12300
Wire Wire Line
	6200 12400 6450 12400
Wire Wire Line
	6450 12550 6200 12550
Wire Wire Line
	6200 12650 6450 12650
Wire Wire Line
	6450 12750 6200 12750
Wire Wire Line
	6200 12850 6450 12850
Wire Wire Line
	6200 13050 6450 13050
Wire Wire Line
	6450 13150 6200 13150
Wire Wire Line
	6200 13250 6450 13250
Wire Wire Line
	6200 12950 6450 12950
$Comp
L 6309:MM5290 U15
U 1 1 6084545A
P 8500 13400
F 0 "U15" H 8500 13350 50  0000 C CNN
F 1 "MM5290" H 8550 13250 50  0000 C CNN
F 2 "" H 8500 13400 50  0001 C CNN
F 3 "" H 8500 13400 50  0001 C CNN
	1    8500 13400
	1    0    0    -1  
$EndComp
$Comp
L power:GND #PWR040
U 1 1 60845461
P 8450 14800
F 0 "#PWR040" H 8450 14550 50  0001 C CNN
F 1 "GND" H 8550 14700 50  0000 C CNN
F 2 "" H 8450 14800 50  0001 C CNN
F 3 "" H 8450 14800 50  0001 C CNN
	1    8450 14800
	-1   0    0    -1  
$EndComp
$Comp
L power:+5V #PWR043
U 1 1 60845467
P 8550 13100
F 0 "#PWR043" H 8550 12950 50  0001 C CNN
F 1 "+5V" H 8565 13273 50  0000 C CNN
F 2 "" H 8550 13100 50  0001 C CNN
F 3 "" H 8550 13100 50  0001 C CNN
	1    8550 13100
	1    0    0    -1  
$EndComp
$Comp
L power:+12V #PWR039
U 1 1 6084546D
P 8450 13100
F 0 "#PWR039" H 8450 12950 50  0001 C CNN
F 1 "+12V" H 8300 13150 50  0000 C CNN
F 2 "" H 8450 13100 50  0001 C CNN
F 3 "" H 8450 13100 50  0001 C CNN
	1    8450 13100
	1    0    0    -1  
$EndComp
$Comp
L power:-5V #PWR044
U 1 1 60845473
P 8550 14800
F 0 "#PWR044" H 8550 14900 50  0001 C CNN
F 1 "-5V" H 8450 14900 50  0000 C CNN
F 2 "" H 8550 14800 50  0001 C CNN
F 3 "" H 8550 14800 50  0001 C CNN
	1    8550 14800
	-1   0    0    1   
$EndComp
Text Label 8150 13300 2    50   ~ 0
AD0
Text Label 8150 13400 2    50   ~ 0
AD1
Text Label 8150 13500 2    50   ~ 0
AD2
Text Label 8150 13600 2    50   ~ 0
AD3
Text Label 8150 13700 2    50   ~ 0
AD4
Text Label 8150 13800 2    50   ~ 0
AD5
Text Label 8150 13900 2    50   ~ 0
AD6
Text Label 8150 14300 2    50   ~ 0
VRAS
Text Label 8150 14200 2    50   ~ 0
VCAS
Text Label 8150 14050 2    50   ~ 0
VRW
Text Label 8150 14450 2    50   ~ 0
RD4
Text Label 8150 14550 2    50   ~ 0
AD4
Wire Wire Line
	8150 13300 7750 13300
Wire Wire Line
	8150 13400 7750 13400
Wire Wire Line
	8150 13500 7750 13500
Wire Wire Line
	8150 13600 7750 13600
Wire Wire Line
	8150 13700 7750 13700
Wire Wire Line
	7750 13800 8150 13800
Wire Wire Line
	8150 13900 7750 13900
Wire Wire Line
	7750 14050 8150 14050
Wire Wire Line
	8150 14200 7750 14200
Wire Wire Line
	8150 14300 7750 14300
Wire Wire Line
	8150 14450 7750 14450
Wire Wire Line
	8150 14550 7750 14550
Entry Wire Line
	7650 13200 7750 13300
Entry Wire Line
	7650 13300 7750 13400
Entry Wire Line
	7650 13400 7750 13500
Entry Wire Line
	7650 13500 7750 13600
Entry Wire Line
	7650 13600 7750 13700
Entry Wire Line
	7650 13700 7750 13800
Entry Wire Line
	7650 13800 7750 13900
Entry Wire Line
	7650 13950 7750 14050
Entry Wire Line
	7650 14100 7750 14200
Entry Wire Line
	7650 14200 7750 14300
Entry Wire Line
	7650 14350 7750 14450
Entry Wire Line
	7650 14450 7750 14550
$Comp
L 6309:MM5290 U17
U 1 1 6084549D
P 9800 13400
F 0 "U17" H 9800 13350 50  0000 C CNN
F 1 "MM5290" H 9850 13250 50  0000 C CNN
F 2 "" H 9800 13400 50  0001 C CNN
F 3 "" H 9800 13400 50  0001 C CNN
	1    9800 13400
	1    0    0    -1  
$EndComp
$Comp
L power:GND #PWR048
U 1 1 608454A4
P 9750 14800
F 0 "#PWR048" H 9750 14550 50  0001 C CNN
F 1 "GND" H 9850 14700 50  0000 C CNN
F 2 "" H 9750 14800 50  0001 C CNN
F 3 "" H 9750 14800 50  0001 C CNN
	1    9750 14800
	-1   0    0    -1  
$EndComp
$Comp
L power:+5V #PWR051
U 1 1 608454AA
P 9850 13100
F 0 "#PWR051" H 9850 12950 50  0001 C CNN
F 1 "+5V" H 9865 13273 50  0000 C CNN
F 2 "" H 9850 13100 50  0001 C CNN
F 3 "" H 9850 13100 50  0001 C CNN
	1    9850 13100
	1    0    0    -1  
$EndComp
$Comp
L power:+12V #PWR047
U 1 1 608454B0
P 9750 13100
F 0 "#PWR047" H 9750 12950 50  0001 C CNN
F 1 "+12V" H 9600 13150 50  0000 C CNN
F 2 "" H 9750 13100 50  0001 C CNN
F 3 "" H 9750 13100 50  0001 C CNN
	1    9750 13100
	1    0    0    -1  
$EndComp
$Comp
L power:-5V #PWR052
U 1 1 608454B6
P 9850 14800
F 0 "#PWR052" H 9850 14900 50  0001 C CNN
F 1 "-5V" H 9750 14900 50  0000 C CNN
F 2 "" H 9850 14800 50  0001 C CNN
F 3 "" H 9850 14800 50  0001 C CNN
	1    9850 14800
	-1   0    0    1   
$EndComp
Text Label 9450 13300 2    50   ~ 0
AD0
Text Label 9450 13400 2    50   ~ 0
AD1
Text Label 9450 13500 2    50   ~ 0
AD2
Text Label 9450 13600 2    50   ~ 0
AD3
Text Label 9450 13700 2    50   ~ 0
AD4
Text Label 9450 13800 2    50   ~ 0
AD5
Text Label 9450 13900 2    50   ~ 0
AD6
Text Label 9450 14300 2    50   ~ 0
VRAS
Text Label 9450 14200 2    50   ~ 0
VCAS
Text Label 9450 14050 2    50   ~ 0
VRW
Text Label 9450 14450 2    50   ~ 0
RD5
Text Label 9450 14550 2    50   ~ 0
AD5
Wire Wire Line
	9450 13300 9050 13300
Wire Wire Line
	9450 13400 9050 13400
Wire Wire Line
	9450 13500 9050 13500
Wire Wire Line
	9450 13600 9050 13600
Wire Wire Line
	9450 13700 9050 13700
Wire Wire Line
	9050 13800 9450 13800
Wire Wire Line
	9450 13900 9050 13900
Wire Wire Line
	9050 14050 9450 14050
Wire Wire Line
	9450 14200 9050 14200
Wire Wire Line
	9450 14300 9050 14300
Wire Wire Line
	9450 14450 9050 14450
Wire Wire Line
	9450 14550 9050 14550
Entry Wire Line
	8950 13200 9050 13300
Entry Wire Line
	8950 13300 9050 13400
Entry Wire Line
	8950 13400 9050 13500
Entry Wire Line
	8950 13500 9050 13600
Entry Wire Line
	8950 13600 9050 13700
Entry Wire Line
	8950 13700 9050 13800
Entry Wire Line
	8950 13800 9050 13900
Entry Wire Line
	8950 13950 9050 14050
Entry Wire Line
	8950 14100 9050 14200
Entry Wire Line
	8950 14200 9050 14300
Entry Wire Line
	8950 14350 9050 14450
Entry Wire Line
	8950 14450 9050 14550
$Comp
L 6309:MM5290 U19
U 1 1 608454E0
P 11100 13400
F 0 "U19" H 11100 13350 50  0000 C CNN
F 1 "MM5290" H 11150 13250 50  0000 C CNN
F 2 "" H 11100 13400 50  0001 C CNN
F 3 "" H 11100 13400 50  0001 C CNN
	1    11100 13400
	1    0    0    -1  
$EndComp
$Comp
L power:GND #PWR056
U 1 1 608454E7
P 11050 14800
F 0 "#PWR056" H 11050 14550 50  0001 C CNN
F 1 "GND" H 11150 14700 50  0000 C CNN
F 2 "" H 11050 14800 50  0001 C CNN
F 3 "" H 11050 14800 50  0001 C CNN
	1    11050 14800
	-1   0    0    -1  
$EndComp
$Comp
L power:+5V #PWR059
U 1 1 608454ED
P 11150 13100
F 0 "#PWR059" H 11150 12950 50  0001 C CNN
F 1 "+5V" H 11165 13273 50  0000 C CNN
F 2 "" H 11150 13100 50  0001 C CNN
F 3 "" H 11150 13100 50  0001 C CNN
	1    11150 13100
	1    0    0    -1  
$EndComp
$Comp
L power:+12V #PWR055
U 1 1 608454F3
P 11050 13100
F 0 "#PWR055" H 11050 12950 50  0001 C CNN
F 1 "+12V" H 10900 13150 50  0000 C CNN
F 2 "" H 11050 13100 50  0001 C CNN
F 3 "" H 11050 13100 50  0001 C CNN
	1    11050 13100
	1    0    0    -1  
$EndComp
$Comp
L power:-5V #PWR060
U 1 1 608454F9
P 11150 14800
F 0 "#PWR060" H 11150 14900 50  0001 C CNN
F 1 "-5V" H 11050 14900 50  0000 C CNN
F 2 "" H 11150 14800 50  0001 C CNN
F 3 "" H 11150 14800 50  0001 C CNN
	1    11150 14800
	-1   0    0    1   
$EndComp
Text Label 10750 13300 2    50   ~ 0
AD0
Text Label 10750 13400 2    50   ~ 0
AD1
Text Label 10750 13500 2    50   ~ 0
AD2
Text Label 10750 13600 2    50   ~ 0
AD3
Text Label 10750 13700 2    50   ~ 0
AD4
Text Label 10750 13800 2    50   ~ 0
AD5
Text Label 10750 13900 2    50   ~ 0
AD6
Text Label 10750 14300 2    50   ~ 0
VRAS
Text Label 10750 14200 2    50   ~ 0
VCAS
Text Label 10750 14050 2    50   ~ 0
VRW
Text Label 10750 14450 2    50   ~ 0
RD6
Text Label 10750 14550 2    50   ~ 0
AD6
Wire Wire Line
	10750 13300 10350 13300
Wire Wire Line
	10750 13400 10350 13400
Wire Wire Line
	10750 13500 10350 13500
Wire Wire Line
	10750 13600 10350 13600
Wire Wire Line
	10750 13700 10350 13700
Wire Wire Line
	10350 13800 10750 13800
Wire Wire Line
	10750 13900 10350 13900
Wire Wire Line
	10350 14050 10750 14050
Wire Wire Line
	10750 14200 10350 14200
Wire Wire Line
	10750 14300 10350 14300
Wire Wire Line
	10750 14450 10350 14450
Wire Wire Line
	10750 14550 10350 14550
Entry Wire Line
	10250 13200 10350 13300
Entry Wire Line
	10250 13300 10350 13400
Entry Wire Line
	10250 13400 10350 13500
Entry Wire Line
	10250 13500 10350 13600
Entry Wire Line
	10250 13600 10350 13700
Entry Wire Line
	10250 13700 10350 13800
Entry Wire Line
	10250 13800 10350 13900
Entry Wire Line
	10250 13950 10350 14050
Entry Wire Line
	10250 14100 10350 14200
Entry Wire Line
	10250 14200 10350 14300
Entry Wire Line
	10250 14350 10350 14450
Entry Wire Line
	10250 14450 10350 14550
$Comp
L 6309:MM5290 U21
U 1 1 60845523
P 12400 13400
F 0 "U21" H 12400 13350 50  0000 C CNN
F 1 "MM5290" H 12450 13250 50  0000 C CNN
F 2 "" H 12400 13400 50  0001 C CNN
F 3 "" H 12400 13400 50  0001 C CNN
	1    12400 13400
	1    0    0    -1  
$EndComp
$Comp
L power:GND #PWR064
U 1 1 6084552A
P 12350 14800
F 0 "#PWR064" H 12350 14550 50  0001 C CNN
F 1 "GND" H 12450 14700 50  0000 C CNN
F 2 "" H 12350 14800 50  0001 C CNN
F 3 "" H 12350 14800 50  0001 C CNN
	1    12350 14800
	-1   0    0    -1  
$EndComp
$Comp
L power:+5V #PWR067
U 1 1 60845530
P 12450 13100
F 0 "#PWR067" H 12450 12950 50  0001 C CNN
F 1 "+5V" H 12465 13273 50  0000 C CNN
F 2 "" H 12450 13100 50  0001 C CNN
F 3 "" H 12450 13100 50  0001 C CNN
	1    12450 13100
	1    0    0    -1  
$EndComp
$Comp
L power:+12V #PWR063
U 1 1 60845536
P 12350 13100
F 0 "#PWR063" H 12350 12950 50  0001 C CNN
F 1 "+12V" H 12200 13150 50  0000 C CNN
F 2 "" H 12350 13100 50  0001 C CNN
F 3 "" H 12350 13100 50  0001 C CNN
	1    12350 13100
	1    0    0    -1  
$EndComp
$Comp
L power:-5V #PWR068
U 1 1 6084553C
P 12450 14800
F 0 "#PWR068" H 12450 14900 50  0001 C CNN
F 1 "-5V" H 12350 14900 50  0000 C CNN
F 2 "" H 12450 14800 50  0001 C CNN
F 3 "" H 12450 14800 50  0001 C CNN
	1    12450 14800
	-1   0    0    1   
$EndComp
Text Label 12050 13300 2    50   ~ 0
AD0
Text Label 12050 13400 2    50   ~ 0
AD1
Text Label 12050 13500 2    50   ~ 0
AD2
Text Label 12050 13600 2    50   ~ 0
AD3
Text Label 12050 13700 2    50   ~ 0
AD4
Text Label 12050 13800 2    50   ~ 0
AD5
Text Label 12050 13900 2    50   ~ 0
AD6
Text Label 12050 14300 2    50   ~ 0
VRAS
Text Label 12050 14200 2    50   ~ 0
VCAS
Text Label 12050 14050 2    50   ~ 0
VRW
Text Label 12050 14450 2    50   ~ 0
RD7
Text Label 12050 14550 2    50   ~ 0
AD7
Wire Wire Line
	12050 13300 11650 13300
Wire Wire Line
	12050 13400 11650 13400
Wire Wire Line
	12050 13500 11650 13500
Wire Wire Line
	12050 13600 11650 13600
Wire Wire Line
	12050 13700 11650 13700
Wire Wire Line
	11650 13800 12050 13800
Wire Wire Line
	12050 13900 11650 13900
Wire Wire Line
	11650 14050 12050 14050
Wire Wire Line
	12050 14200 11650 14200
Wire Wire Line
	12050 14300 11650 14300
Wire Wire Line
	12050 14450 11650 14450
Wire Wire Line
	12050 14550 11650 14550
Entry Wire Line
	11550 13200 11650 13300
Entry Wire Line
	11550 13300 11650 13400
Entry Wire Line
	11550 13400 11650 13500
Entry Wire Line
	11550 13500 11650 13600
Entry Wire Line
	11550 13600 11650 13700
Entry Wire Line
	11550 13700 11650 13800
Entry Wire Line
	11550 13800 11650 13900
Entry Wire Line
	11550 13950 11650 14050
Entry Wire Line
	11550 14100 11650 14200
Entry Wire Line
	11550 14200 11650 14300
Entry Wire Line
	11550 14350 11650 14450
Entry Wire Line
	11550 14450 11650 14550
$Comp
L Device:C_Small C26
U 1 1 60845566
P 12950 13250
F 0 "C26" H 13042 13296 50  0000 L CNN
F 1 "0.1µF" H 13042 13205 50  0000 L CNN
F 2 "" H 12950 13250 50  0001 C CNN
F 3 "~" H 12950 13250 50  0001 C CNN
	1    12950 13250
	1    0    0    -1  
$EndComp
$Comp
L power:GND #PWR074
U 1 1 6084556D
P 12950 13350
F 0 "#PWR074" H 12950 13100 50  0001 C CNN
F 1 "GND" H 13050 13250 50  0000 C CNN
F 2 "" H 12950 13350 50  0001 C CNN
F 3 "" H 12950 13350 50  0001 C CNN
	1    12950 13350
	-1   0    0    -1  
$EndComp
$Comp
L Device:C_Small C29
U 1 1 60845573
P 13000 12650
F 0 "C29" H 13092 12696 50  0000 L CNN
F 1 "0.1µF" H 13092 12605 50  0000 L CNN
F 2 "" H 13000 12650 50  0001 C CNN
F 3 "~" H 13000 12650 50  0001 C CNN
	1    13000 12650
	1    0    0    -1  
$EndComp
$Comp
L power:GND #PWR080
U 1 1 6084557A
P 13000 12750
F 0 "#PWR080" H 13000 12500 50  0001 C CNN
F 1 "GND" H 13100 12650 50  0000 C CNN
F 2 "" H 13000 12750 50  0001 C CNN
F 3 "" H 13000 12750 50  0001 C CNN
	1    13000 12750
	-1   0    0    -1  
$EndComp
$Comp
L Device:C_Small C27
U 1 1 60845580
P 12950 13800
F 0 "C27" H 13042 13846 50  0000 L CNN
F 1 "0.1µF" H 13042 13755 50  0000 L CNN
F 2 "" H 12950 13800 50  0001 C CNN
F 3 "~" H 12950 13800 50  0001 C CNN
	1    12950 13800
	1    0    0    -1  
$EndComp
$Comp
L power:GND #PWR076
U 1 1 60845587
P 12950 13900
F 0 "#PWR076" H 12950 13650 50  0001 C CNN
F 1 "GND" H 13050 13800 50  0000 C CNN
F 2 "" H 12950 13900 50  0001 C CNN
F 3 "" H 12950 13900 50  0001 C CNN
	1    12950 13900
	-1   0    0    -1  
$EndComp
$Comp
L power:+12V #PWR073
U 1 1 60845591
P 12950 13150
F 0 "#PWR073" H 12950 13000 50  0001 C CNN
F 1 "+12V" H 12800 13200 50  0000 C CNN
F 2 "" H 12950 13150 50  0001 C CNN
F 3 "" H 12950 13150 50  0001 C CNN
	1    12950 13150
	1    0    0    -1  
$EndComp
$Comp
L power:+5V #PWR079
U 1 1 60845597
P 13000 12550
F 0 "#PWR079" H 13000 12400 50  0001 C CNN
F 1 "+5V" H 13015 12723 50  0000 C CNN
F 2 "" H 13000 12550 50  0001 C CNN
F 3 "" H 13000 12550 50  0001 C CNN
	1    13000 12550
	1    0    0    -1  
$EndComp
$Comp
L power:-5V #PWR075
U 1 1 6084559D
P 12950 13700
F 0 "#PWR075" H 12950 13800 50  0001 C CNN
F 1 "-5V" H 12850 13800 50  0000 C CNN
F 2 "" H 12950 13700 50  0001 C CNN
F 3 "" H 12950 13700 50  0001 C CNN
	1    12950 13700
	1    0    0    -1  
$EndComp
Wire Bus Line
	11550 10250 10250 10250
Connection ~ 7650 10250
Wire Bus Line
	7650 10250 6550 10250
Connection ~ 8950 10250
Wire Bus Line
	8950 10250 7650 10250
Connection ~ 10250 10250
Wire Bus Line
	10250 10250 8950 10250
Wire Bus Line
	11550 12650 10250 12650
Connection ~ 7650 12650
Wire Bus Line
	7650 12650 6550 12650
Connection ~ 8950 12650
Wire Bus Line
	8950 12650 7650 12650
Connection ~ 10250 12650
Wire Bus Line
	10250 12650 8950 12650
Text Label 5000 11350 2    50   ~ 0
D0
Text Label 5000 11450 2    50   ~ 0
D1
Text Label 5000 11550 2    50   ~ 0
D2
Text Label 5000 11650 2    50   ~ 0
D3
Text Label 5000 11750 2    50   ~ 0
D4
Text Label 5000 11850 2    50   ~ 0
D5
Text Label 5000 11950 2    50   ~ 0
D6
Text Label 5000 12050 2    50   ~ 0
D7
Text Label 5000 12200 2    50   ~ 0
A0
Text Label 5000 12350 2    50   ~ 0
RES
$Comp
L Device:Crystal Y3
U 1 1 60871B04
P 4450 12950
F 0 "Y3" V 4404 13081 50  0000 L CNN
F 1 "10.738635MHz" V 4250 12900 50  0000 L CNN
F 2 "" H 4450 12950 50  0001 C CNN
F 3 "~" H 4450 12950 50  0001 C CNN
	1    4450 12950
	0    1    1    0   
$EndComp
Wire Wire Line
	5000 12800 5000 12900
Wire Wire Line
	5000 13000 5000 13100
$Comp
L Device:C_Small C21
U 1 1 60890436
P 4300 12800
F 0 "C21" V 4071 12800 50  0000 C CNN
F 1 "33pF" V 4162 12800 50  0000 C CNN
F 2 "" H 4300 12800 50  0001 C CNN
F 3 "~" H 4300 12800 50  0001 C CNN
	1    4300 12800
	0    1    1    0   
$EndComp
$Comp
L Device:C_Small C22
U 1 1 60890552
P 4300 13100
F 0 "C22" V 4500 13100 50  0000 C CNN
F 1 "33pF" V 4400 13100 50  0000 C CNN
F 2 "" H 4300 13100 50  0001 C CNN
F 3 "~" H 4300 13100 50  0001 C CNN
	1    4300 13100
	0    1    1    0   
$EndComp
$Comp
L power:GND #PWR029
U 1 1 608A07BD
P 5600 13700
F 0 "#PWR029" H 5600 13450 50  0001 C CNN
F 1 "GND" H 5605 13527 50  0000 C CNN
F 2 "" H 5600 13700 50  0001 C CNN
F 3 "" H 5600 13700 50  0001 C CNN
	1    5600 13700
	-1   0    0    -1  
$EndComp
$Comp
L power:GND #PWR018
U 1 1 608A094E
P 4100 13100
F 0 "#PWR018" H 4100 12850 50  0001 C CNN
F 1 "GND" H 4105 12927 50  0000 C CNN
F 2 "" H 4100 13100 50  0001 C CNN
F 3 "" H 4100 13100 50  0001 C CNN
	1    4100 13100
	-1   0    0    -1  
$EndComp
Wire Wire Line
	4200 13100 4100 13100
Wire Wire Line
	4100 13100 4100 12800
Wire Wire Line
	4100 12800 4200 12800
Connection ~ 4100 13100
Wire Wire Line
	4400 12800 4450 12800
Connection ~ 4450 12800
Wire Wire Line
	4450 12800 5000 12800
Wire Wire Line
	4400 13100 4450 13100
Connection ~ 4450 13100
Wire Wire Line
	4450 13100 5000 13100
NoConn ~ 5000 13150
NoConn ~ 5000 13250
NoConn ~ 5000 13400
NoConn ~ 5000 12750
Entry Wire Line
	6450 13400 6550 13300
Wire Wire Line
	6450 13400 6200 13400
Connection ~ 6550 12650
$Comp
L Device:R_US R9
U 1 1 60982316
P 4850 13700
F 0 "R9" H 4918 13746 50  0000 L CNN
F 1 "470" H 4918 13655 50  0000 L CNN
F 2 "" V 4890 13690 50  0001 C CNN
F 3 "~" H 4850 13700 50  0001 C CNN
	1    4850 13700
	1    0    0    -1  
$EndComp
Wire Wire Line
	5000 13550 4850 13550
$Comp
L power:GND #PWR021
U 1 1 60992E6E
P 4850 13850
F 0 "#PWR021" H 4850 13600 50  0001 C CNN
F 1 "GND" H 4855 13677 50  0000 C CNN
F 2 "" H 4850 13850 50  0001 C CNN
F 3 "" H 4850 13850 50  0001 C CNN
	1    4850 13850
	-1   0    0    -1  
$EndComp
Wire Wire Line
	3600 12800 3600 13550
$Comp
L 74xx:74LS32 U12
U 2 1 609B58ED
P 4450 11600
F 0 "U12" H 4450 11925 50  0000 C CNN
F 1 "74HC32" H 4450 11834 50  0000 C CNN
F 2 "" H 4450 11600 50  0001 C CNN
F 3 "http://www.ti.com/lit/gpn/sn74LS32" H 4450 11600 50  0001 C CNN
	2    4450 11600
	1    0    0    -1  
$EndComp
$Comp
L 74xx:74LS32 U12
U 1 1 609B5AFD
P 4450 11000
F 0 "U12" H 4450 11325 50  0000 C CNN
F 1 "74HC32" H 4450 11234 50  0000 C CNN
F 2 "" H 4450 11000 50  0001 C CNN
F 3 "http://www.ti.com/lit/gpn/sn74LS32" H 4450 11000 50  0001 C CNN
	1    4450 11000
	1    0    0    -1  
$EndComp
Wire Wire Line
	4150 11500 4150 11100
Text Label 4150 10900 2    50   ~ 0
OE
Text Label 4150 11700 2    50   ~ 0
WE
Text Label 4150 11100 2    50   ~ 0
VDPCS
Wire Wire Line
	5000 12500 4850 12500
Wire Wire Line
	4850 12500 4850 11000
Wire Wire Line
	4850 11000 4750 11000
Wire Wire Line
	4750 11600 4750 12600
Wire Wire Line
	4750 12600 5000 12600
$Comp
L 74xx:74LS32 U12
U 5 1 609FD3F9
P 2950 11700
F 0 "U12" H 3180 11746 50  0000 L CNN
F 1 "74HC32" H 3180 11655 50  0000 L CNN
F 2 "" H 2950 11700 50  0001 C CNN
F 3 "http://www.ti.com/lit/gpn/sn74LS32" H 2950 11700 50  0001 C CNN
	5    2950 11700
	1    0    0    -1  
$EndComp
$Comp
L Device:C_Small C30
U 1 1 609FD821
P 2850 11100
F 0 "C30" V 2700 11200 50  0000 C CNN
F 1 "0.1uF" V 2800 11250 50  0000 C CNN
F 2 "" H 2850 11100 50  0001 C CNN
F 3 "~" H 2850 11100 50  0001 C CNN
	1    2850 11100
	0    -1   1    0   
$EndComp
$Comp
L power:GND #PWR081
U 1 1 609FD828
P 2750 11100
F 0 "#PWR081" H 2750 10850 50  0001 C CNN
F 1 "GND" H 2755 10927 50  0000 C CNN
F 2 "" H 2750 11100 50  0001 C CNN
F 3 "" H 2750 11100 50  0001 C CNN
	1    2750 11100
	-1   0    0    -1  
$EndComp
Wire Wire Line
	2950 11050 2950 11100
Connection ~ 2950 11100
Wire Wire Line
	2950 11100 2950 11200
$Comp
L power:+5V #PWR082
U 1 1 609FD831
P 2950 11050
F 0 "#PWR082" H 2950 10900 50  0001 C CNN
F 1 "+5V" H 2965 11223 50  0000 C CNN
F 2 "" H 2950 11050 50  0001 C CNN
F 3 "" H 2950 11050 50  0001 C CNN
	1    2950 11050
	1    0    0    -1  
$EndComp
$Comp
L power:GND #PWR083
U 1 1 60A0F355
P 2950 12200
F 0 "#PWR083" H 2950 11950 50  0001 C CNN
F 1 "GND" H 2955 12027 50  0000 C CNN
F 2 "" H 2950 12200 50  0001 C CNN
F 3 "" H 2950 12200 50  0001 C CNN
	1    2950 12200
	-1   0    0    -1  
$EndComp
Text Label 3700 4700 0    50   ~ 0
VDPCS
$Comp
L 74xx:74LS138 U5
U 1 1 6077DC7A
P 3200 4900
F 0 "U5" H 2950 5500 50  0000 C CNN
F 1 "74LS138" H 2950 5350 50  0000 C CNN
F 2 "" H 3200 4900 50  0001 C CNN
F 3 "http://www.ti.com/lit/gpn/sn74LS138" H 3200 4900 50  0001 C CNN
	1    3200 4900
	1    0    0    -1  
$EndComp
Text Label 3700 4800 0    50   ~ 0
PTMCS
$Comp
L Memory_EPROM:27128 U22
U 1 1 60996E56
P 4050 7850
F 0 "U22" H 3750 9000 50  0000 C CNN
F 1 "27128" H 3800 8900 50  0000 C CNN
F 2 "Package_DIP:DIP-28_W15.24mm" H 4050 7850 50  0001 C CNN
F 3 "http://eeshop.unl.edu/pdf/27128.pdf" H 4050 7850 50  0001 C CNN
	1    4050 7850
	1    0    0    -1  
$EndComp
Text Label 3650 6950 2    50   ~ 0
A0
Text Label 3650 7050 2    50   ~ 0
A1
Text Label 3650 7150 2    50   ~ 0
A2
Text Label 3650 7250 2    50   ~ 0
A3
Text Label 3650 7350 2    50   ~ 0
A4
Text Label 3650 7450 2    50   ~ 0
A5
Text Label 3650 7550 2    50   ~ 0
A6
Text Label 3650 7650 2    50   ~ 0
A7
Text Label 3650 7750 2    50   ~ 0
A8
Text Label 3650 7850 2    50   ~ 0
A9
Text Label 3650 7950 2    50   ~ 0
A10
Text Label 3650 8050 2    50   ~ 0
A11
Text Label 3650 8150 2    50   ~ 0
A12
Text Label 3650 8250 2    50   ~ 0
A13
Text Label 4450 6950 0    50   ~ 0
D0
Text Label 4450 7050 0    50   ~ 0
D1
Text Label 4450 7150 0    50   ~ 0
D2
Text Label 4450 7250 0    50   ~ 0
D3
Text Label 4450 7350 0    50   ~ 0
D4
Text Label 4450 7450 0    50   ~ 0
D5
Text Label 4450 7550 0    50   ~ 0
D6
Text Label 4450 7650 0    50   ~ 0
D7
Text Label 3650 8650 2    50   ~ 0
ROMCS
Text Label 3650 8750 2    50   ~ 0
OE
Text Label 3450 8450 2    50   ~ 0
WE
$Comp
L power:+5V #PWR09
U 1 1 60999068
P 2300 8300
F 0 "#PWR09" H 2300 8150 50  0001 C CNN
F 1 "+5V" H 2315 8473 50  0000 C CNN
F 2 "" H 2300 8300 50  0001 C CNN
F 3 "" H 2300 8300 50  0001 C CNN
	1    2300 8300
	0    1    1    0   
$EndComp
$Comp
L power:GND #PWR069
U 1 1 609BD347
P 4050 8950
F 0 "#PWR069" H 4050 8700 50  0001 C CNN
F 1 "GND" H 4150 8950 50  0000 C CNN
F 2 "" H 4050 8950 50  0001 C CNN
F 3 "" H 4050 8950 50  0001 C CNN
	1    4050 8950
	1    0    0    -1  
$EndComp
Wire Notes Line
	3300 9250 3300 6350
Wire Notes Line
	3300 6350 4700 6350
Wire Notes Line
	4700 6350 4700 9250
Wire Notes Line
	4700 9250 3300 9250
Text Notes 4700 9200 2    59   ~ 0
16KB\nROM (or SRAM for testing)
Wire Notes Line
	13400 15100 850  15100
Wire Notes Line
	850  15100 850  10050
Wire Notes Line
	850  10050 13400 10050
Wire Notes Line
	13400 10050 13400 15100
Text Notes 13350 15050 2    59   ~ 0
A/V
$Comp
L Device:R_POT_US RV1
U 1 1 609D2621
P 3350 13700
F 0 "RV1" V 3237 13700 50  0000 C CNN
F 1 "R_POT_US" V 3147 13700 50  0001 C CNN
F 2 "" H 3350 13700 50  0001 C CNN
F 3 "~" H 3350 13700 50  0001 C CNN
	1    3350 13700
	0    -1   -1   0   
$EndComp
Wire Wire Line
	3200 13700 2750 13700
Wire Wire Line
	3700 13350 3700 12800
$Comp
L power:GND #PWR070
U 1 1 609F602D
P 3500 13700
F 0 "#PWR070" H 3500 13450 50  0001 C CNN
F 1 "GND" H 3505 13527 50  0000 C CNN
F 2 "" H 3500 13700 50  0001 C CNN
F 3 "" H 3500 13700 50  0001 C CNN
	1    3500 13700
	-1   0    0    -1  
$EndComp
NoConn ~ 2750 13500
Wire Wire Line
	3700 13350 3350 13350
Wire Wire Line
	3350 13350 3350 13550
$Comp
L Device:R_US R1
U 1 1 60A2D04B
P 4700 13550
F 0 "R1" V 4495 13550 50  0000 C CNN
F 1 "75" V 4586 13550 50  0000 C CNN
F 2 "" V 4740 13540 50  0001 C CNN
F 3 "~" H 4700 13550 50  0001 C CNN
	1    4700 13550
	0    1    1    0   
$EndComp
Connection ~ 4850 13550
Wire Wire Line
	4550 13550 3600 13550
Text Label 6700 7300 0    50   ~ 0
SCL
$Comp
L power:+5V #PWR0135
U 1 1 6105BA42
P 3650 8550
F 0 "#PWR0135" H 3650 8400 50  0001 C CNN
F 1 "+5V" H 3665 8723 50  0000 C CNN
F 2 "" H 3650 8550 50  0001 C CNN
F 3 "" H 3650 8550 50  0001 C CNN
	1    3650 8550
	0    -1   -1   0   
$EndComp
Wire Notes Line
	5650 6650 8350 6650
Wire Wire Line
	6700 8850 7200 8850
Wire Wire Line
	7200 8950 6700 8950
$Comp
L Connector:DB9_Female J7
U 1 1 6194D06E
P 10650 4850
F 0 "J7" H 10830 4896 50  0000 L CNN
F 1 "DB9_Female" H 10830 4805 50  0000 L CNN
F 2 "" H 10650 4850 50  0001 C CNN
F 3 " ~" H 10650 4850 50  0001 C CNN
	1    10650 4850
	1    0    0    -1  
$EndComp
Wire Wire Line
	1300 8450 1300 8600
Text Label 3700 4900 0    50   ~ 0
JOYCS
$Comp
L 74xx:74LS32 U12
U 3 1 618FBCAF
P 9600 5050
F 0 "U12" H 9600 5375 50  0000 C CNN
F 1 "74HC32" H 9600 5284 50  0000 C CNN
F 2 "" H 9600 5050 50  0001 C CNN
F 3 "http://www.ti.com/lit/gpn/sn74LS32" H 9600 5050 50  0001 C CNN
	3    9600 5050
	1    0    0    -1  
$EndComp
Wire Wire Line
	9900 5050 10350 5050
$Comp
L power:GND #PWR084
U 1 1 6191EA3C
P 10350 4450
F 0 "#PWR084" H 10350 4200 50  0001 C CNN
F 1 "GND" H 10355 4277 50  0000 C CNN
F 2 "" H 10350 4450 50  0001 C CNN
F 3 "" H 10350 4450 50  0001 C CNN
	1    10350 4450
	0    1    1    0   
$EndComp
$Comp
L power:+5V #PWR085
U 1 1 6192399F
P 10350 5250
F 0 "#PWR085" H 10350 5100 50  0001 C CNN
F 1 "+5V" H 10365 5423 50  0000 C CNN
F 2 "" H 10350 5250 50  0001 C CNN
F 3 "" H 10350 5250 50  0001 C CNN
	1    10350 5250
	0    -1   -1   0   
$EndComp
Text Label 9300 4950 2    50   ~ 0
JOYCS
Text Label 9300 5150 2    50   ~ 0
OE
$Sheet
S 9400 5550 1600 600 
U 61F1E8E8
F0 "Joystick" 50
F1 "Joystick.sch" 50
$EndSheet
Text Label 10350 5150 2    50   ~ 0
D3
Text Label 10350 4950 2    50   ~ 0
D2
Text Label 10350 4750 2    50   ~ 0
D1
Text Label 10350 4550 2    50   ~ 0
D0
Text Label 10350 4850 2    50   ~ 0
D5
Text Label 10350 4650 2    50   ~ 0
D6
Wire Notes Line
	8700 4150 11500 4150
Wire Notes Line
	11500 4150 11500 6650
Wire Notes Line
	11500 6650 8700 6650
Wire Notes Line
	8700 6650 8700 4150
Text Notes 11450 6600 2    59   ~ 0
Joystick
Wire Notes Line
	5500 2900 700  2900
Wire Notes Line
	700  6150 5500 6150
Connection ~ 7650 950 
Text Label 6700 7400 0    50   ~ 0
SDA
Wire Wire Line
	7850 6750 7850 6900
Wire Wire Line
	8350 6750 8350 6900
Wire Wire Line
	7850 6750 8350 6750
Wire Notes Line
	8300 6800 8200 6800
Wire Notes Line
	8300 7200 8300 6800
Wire Notes Line
	8200 7200 8300 7200
Wire Notes Line
	8200 6800 8200 7200
Wire Notes Line
	7050 7200 7050 6800
Wire Notes Line
	7150 7200 7050 7200
Wire Notes Line
	7150 6800 7150 7200
Wire Notes Line
	7050 6800 7150 6800
Text Label 7000 6900 2    50   ~ 0
SDA
Text Label 7000 7000 2    50   ~ 0
SCL
Text Label 8350 7000 0    50   ~ 0
SCL
Connection ~ 8350 6900
Connection ~ 7850 6900
Wire Wire Line
	7850 7000 7850 6900
Wire Wire Line
	7500 7000 7500 7100
Connection ~ 7500 7000
Connection ~ 7500 6900
Wire Wire Line
	7500 6900 7500 7000
$Comp
L power:+5V #PWR071
U 1 1 625AD571
P 7000 7100
F 0 "#PWR071" H 7000 6950 50  0001 C CNN
F 1 "+5V" H 7015 7273 50  0000 C CNN
F 2 "" H 7000 7100 50  0001 C CNN
F 3 "" H 7000 7100 50  0001 C CNN
	1    7000 7100
	0    -1   -1   0   
$EndComp
$Comp
L power:+5V #PWR078
U 1 1 625ACDD2
P 8350 6900
F 0 "#PWR078" H 8350 6750 50  0001 C CNN
F 1 "+5V" H 8365 7073 50  0000 C CNN
F 2 "" H 8350 6900 50  0001 C CNN
F 3 "" H 8350 6900 50  0001 C CNN
	1    8350 6900
	0    1    1    0   
$EndComp
$Comp
L power:GND #PWR072
U 1 1 6257E8B2
P 7500 6900
F 0 "#PWR072" H 7500 6650 50  0001 C CNN
F 1 "GND" H 7505 6727 50  0000 C CNN
F 2 "" H 7500 6900 50  0001 C CNN
F 3 "" H 7500 6900 50  0001 C CNN
	1    7500 6900
	0    -1   -1   0   
$EndComp
$Comp
L power:GND #PWR077
U 1 1 6257CEF1
P 7850 7100
F 0 "#PWR077" H 7850 6850 50  0001 C CNN
F 1 "GND" H 7855 6927 50  0000 C CNN
F 2 "" H 7850 7100 50  0001 C CNN
F 3 "" H 7850 7100 50  0001 C CNN
	1    7850 7100
	0    1    1    0   
$EndComp
$Comp
L Connector_Generic:Conn_02x03_Counter_Clockwise J5
U 1 1 6255C1D2
P 7200 7000
F 0 "J5" H 7250 7225 50  0000 C CNN
F 1 "Conn_02x03_Counter_Clockwise" H 7250 7226 50  0001 C CNN
F 2 "" H 7200 7000 50  0001 C CNN
F 3 "~" H 7200 7000 50  0001 C CNN
	1    7200 7000
	1    0    0    -1  
$EndComp
$Comp
L Connector_Generic:Conn_02x03_Counter_Clockwise J6
U 1 1 6255C8F6
P 8150 7000
F 0 "J6" H 8200 6767 50  0000 C CNN
F 1 "Conn_02x03_Counter_Clockwise" H 8200 6766 50  0001 C CNN
F 2 "" H 8150 7000 50  0001 C CNN
F 3 "~" H 8150 7000 50  0001 C CNN
	1    8150 7000
	-1   0    0    1   
$EndComp
Text Label 8350 7100 0    50   ~ 0
SDA
$Sheet
S 7200 7400 500  1700
U 6273EE5F
F0 "Keyboard" 50
F1 "Keyboard.sch" 50
F2 "A2" I L 7200 7500 50 
F3 "A3" I L 7200 7600 50 
F4 "A4" I L 7200 7700 50 
F5 "A5" I L 7200 7800 50 
F6 "A6" I L 7200 7900 50 
F7 "A7" I L 7200 8000 50 
F8 "B0" I L 7200 8350 50 
F9 "B1" I L 7200 8450 50 
F10 "B2" I L 7200 8550 50 
F11 "B3" I L 7200 8650 50 
F12 "B4" I L 7200 8750 50 
F13 "B5" I L 7200 8850 50 
F14 "B6" I L 7200 8950 50 
$EndSheet
Wire Notes Line
	8650 9650 8650 6700
Wire Notes Line
	4900 9650 8650 9650
Wire Notes Line
	4900 6700 8650 6700
$Comp
L Connector:Conn_01x02_Male J2
U 1 1 60690FD2
P 9550 7700
F 0 "J2" H 9656 7878 50  0000 C CNN
F 1 "Power" H 9656 7787 50  0000 C CNN
F 2 "" H 9550 7700 50  0001 C CNN
F 3 "~" H 9550 7700 50  0001 C CNN
	1    9550 7700
	1    0    0    -1  
$EndComp
$Comp
L power:GND #PWR023
U 1 1 60691C70
P 9750 7950
F 0 "#PWR023" H 9750 7700 50  0001 C CNN
F 1 "GND" H 9755 7777 50  0000 C CNN
F 2 "" H 9750 7950 50  0001 C CNN
F 3 "" H 9750 7950 50  0001 C CNN
	1    9750 7950
	1    0    0    -1  
$EndComp
$Comp
L Device:LED D1
U 1 1 60693FA7
P 12750 7750
F 0 "D1" V 12788 7632 50  0000 R CNN
F 1 "LED" V 12697 7632 50  0000 R CNN
F 2 "" H 12750 7750 50  0001 C CNN
F 3 "~" H 12750 7750 50  0001 C CNN
	1    12750 7750
	0    -1   -1   0   
$EndComp
$Comp
L Device:R_US R4
U 1 1 60694390
P 12750 8050
F 0 "R4" H 12818 8096 50  0000 L CNN
F 1 "2K" H 12818 8005 50  0000 L CNN
F 2 "" V 12790 8040 50  0001 C CNN
F 3 "~" H 12750 8050 50  0001 C CNN
	1    12750 8050
	1    0    0    -1  
$EndComp
$Comp
L power:GND #PWR030
U 1 1 606943EC
P 12750 8200
F 0 "#PWR030" H 12750 7950 50  0001 C CNN
F 1 "GND" H 12900 8150 50  0000 C CNN
F 2 "" H 12750 8200 50  0001 C CNN
F 3 "" H 12750 8200 50  0001 C CNN
	1    12750 8200
	1    0    0    -1  
$EndComp
Text Notes 13400 9700 2    59   ~ 0
Power
$Comp
L power:+12V #PWR0118
U 1 1 607AA4A1
P 10000 7700
F 0 "#PWR0118" H 10000 7550 50  0001 C CNN
F 1 "+12V" H 10015 7873 50  0000 C CNN
F 2 "" H 10000 7700 50  0001 C CNN
F 3 "" H 10000 7700 50  0001 C CNN
	1    10000 7700
	1    0    0    -1  
$EndComp
$Comp
L 6309:AP1184-Power_Management U9
U 1 1 607ACA6E
P 11550 7700
F 0 "U9" H 11550 8065 50  0000 C CNN
F 1 "AP1184" H 11550 7974 50  0000 C CNN
F 2 "" H 11450 7700 50  0001 C CNN
F 3 "" H 11450 7700 50  0001 C CNN
	1    11550 7700
	1    0    0    -1  
$EndComp
$Comp
L Device:CP1_Small C15
U 1 1 607AF06C
P 10850 7350
F 0 "C15" H 10950 7350 50  0000 L CNN
F 1 "470µF" H 10900 7250 50  0000 L CNN
F 2 "" H 10850 7350 50  0001 C CNN
F 3 "~" H 10850 7350 50  0001 C CNN
	1    10850 7350
	1    0    0    -1  
$EndComp
$Comp
L Device:CP1_Small C18
U 1 1 607B04E7
P 12150 7700
F 0 "C18" H 12241 7746 50  0000 L CNN
F 1 "470µF" H 12241 7655 50  0000 L CNN
F 2 "" H 12150 7700 50  0001 C CNN
F 3 "~" H 12150 7700 50  0001 C CNN
	1    12150 7700
	1    0    0    -1  
$EndComp
$Comp
L Device:CP1_Small C16
U 1 1 607B1556
P 10900 7800
F 0 "C16" H 10991 7846 50  0000 L CNN
F 1 "470µF" H 10991 7755 50  0000 L CNN
F 2 "" H 10900 7800 50  0001 C CNN
F 3 "~" H 10900 7800 50  0001 C CNN
	1    10900 7800
	1    0    0    -1  
$EndComp
Wire Wire Line
	11950 7700 11950 7600
Wire Wire Line
	12150 7600 11950 7600
$Comp
L power:+5V #PWR0119
U 1 1 607B4C20
P 12150 7600
F 0 "#PWR0119" H 12150 7450 50  0001 C CNN
F 1 "+5V" H 12165 7773 50  0000 C CNN
F 2 "" H 12150 7600 50  0001 C CNN
F 3 "" H 12150 7600 50  0001 C CNN
	1    12150 7600
	1    0    0    -1  
$EndComp
Connection ~ 12150 7600
Wire Wire Line
	12150 7600 12750 7600
$Comp
L power:GND #PWR0120
U 1 1 607B7228
P 12150 7800
F 0 "#PWR0120" H 12150 7550 50  0001 C CNN
F 1 "GND" H 12155 7627 50  0000 C CNN
F 2 "" H 12150 7800 50  0001 C CNN
F 3 "" H 12150 7800 50  0001 C CNN
	1    12150 7800
	1    0    0    -1  
$EndComp
$Comp
L power:GND #PWR0121
U 1 1 607B735F
P 11550 7950
F 0 "#PWR0121" H 11550 7700 50  0001 C CNN
F 1 "GND" H 11555 7777 50  0000 C CNN
F 2 "" H 11550 7950 50  0001 C CNN
F 3 "" H 11550 7950 50  0001 C CNN
	1    11550 7950
	1    0    0    -1  
$EndComp
$Comp
L power:GND #PWR0122
U 1 1 607B7833
P 10850 7450
F 0 "#PWR0122" H 10850 7200 50  0001 C CNN
F 1 "GND" H 10855 7277 50  0000 C CNN
F 2 "" H 10850 7450 50  0001 C CNN
F 3 "" H 10850 7450 50  0001 C CNN
	1    10850 7450
	1    0    0    -1  
$EndComp
Wire Wire Line
	10850 7250 11150 7250
Connection ~ 11950 7600
Wire Wire Line
	11150 7250 11150 7600
Wire Wire Line
	10900 7700 11150 7700
$Comp
L power:GND #PWR0123
U 1 1 607BE53A
P 10900 7900
F 0 "#PWR0123" H 10900 7650 50  0001 C CNN
F 1 "GND" H 10905 7727 50  0000 C CNN
F 2 "" H 10900 7900 50  0001 C CNN
F 3 "" H 10900 7900 50  0001 C CNN
	1    10900 7900
	1    0    0    -1  
$EndComp
Connection ~ 10900 7700
$Comp
L power:+12V #PWR0124
U 1 1 607C45E9
P 10850 7250
F 0 "#PWR0124" H 10850 7100 50  0001 C CNN
F 1 "+12V" H 10865 7423 50  0000 C CNN
F 2 "" H 10850 7250 50  0001 C CNN
F 3 "" H 10850 7250 50  0001 C CNN
	1    10850 7250
	1    0    0    -1  
$EndComp
Connection ~ 10850 7250
$Comp
L Timer:NE555P U8
U 1 1 607C4B60
P 9850 9050
F 0 "U8" H 9850 9150 50  0000 C CNN
F 1 "NE555P" H 9850 9050 50  0000 C CNN
F 2 "Package_DIP:DIP-8_W7.62mm" H 10500 8650 50  0001 C CNN
F 3 "http://www.ti.com/lit/ds/symlink/ne555.pdf" H 10700 8650 50  0001 C CNN
	1    9850 9050
	1    0    0    -1  
$EndComp
$Comp
L power:+12V #PWR0125
U 1 1 607C4D47
P 9850 8650
F 0 "#PWR0125" H 9850 8500 50  0001 C CNN
F 1 "+12V" H 9865 8823 50  0000 C CNN
F 2 "" H 9850 8650 50  0001 C CNN
F 3 "" H 9850 8650 50  0001 C CNN
	1    9850 8650
	1    0    0    -1  
$EndComp
$Comp
L power:GND #PWR0126
U 1 1 607C504B
P 9850 9450
F 0 "#PWR0126" H 9850 9200 50  0001 C CNN
F 1 "GND" H 9855 9277 50  0000 C CNN
F 2 "" H 9850 9450 50  0001 C CNN
F 3 "" H 9850 9450 50  0001 C CNN
	1    9850 9450
	1    0    0    -1  
$EndComp
Wire Wire Line
	10350 9250 10350 9600
$Comp
L Device:C_Small C14
U 1 1 607C6753
P 10500 9350
F 0 "C14" H 10550 9150 50  0000 L CNN
F 1 "0.1µF" H 10550 9250 50  0000 L CNN
F 2 "" H 10500 9350 50  0001 C CNN
F 3 "~" H 10500 9350 50  0001 C CNN
	1    10500 9350
	1    0    0    -1  
$EndComp
Wire Wire Line
	10350 9250 10500 9250
Connection ~ 10350 9250
$Comp
L Device:R_US R6
U 1 1 607C7E02
P 10650 9250
F 0 "R6" V 10550 9150 50  0000 C CNN
F 1 "3.3K" V 10550 9300 50  0000 C CNN
F 2 "" V 10690 9240 50  0001 C CNN
F 3 "~" H 10650 9250 50  0001 C CNN
	1    10650 9250
	0    1    1    0   
$EndComp
Connection ~ 10500 9250
$Comp
L Device:R_US R7
U 1 1 607C988A
P 10800 8900
F 0 "R7" H 10732 8854 50  0000 R CNN
F 1 "3.3K" H 10732 8945 50  0000 R CNN
F 2 "" V 10840 8890 50  0001 C CNN
F 3 "~" H 10800 8900 50  0001 C CNN
	1    10800 8900
	-1   0    0    1   
$EndComp
Wire Wire Line
	10350 9050 10800 9050
Connection ~ 10800 9050
$Comp
L power:GND #PWR0127
U 1 1 607CC4AB
P 10500 9450
F 0 "#PWR0127" H 10500 9200 50  0001 C CNN
F 1 "GND" H 10505 9277 50  0000 C CNN
F 2 "" H 10500 9450 50  0001 C CNN
F 3 "" H 10500 9450 50  0001 C CNN
	1    10500 9450
	1    0    0    -1  
$EndComp
$Comp
L power:+12V #PWR0128
U 1 1 607CC6B4
P 9350 9250
F 0 "#PWR0128" H 9350 9100 50  0001 C CNN
F 1 "+12V" H 9365 9423 50  0000 C CNN
F 2 "" H 9350 9250 50  0001 C CNN
F 3 "" H 9350 9250 50  0001 C CNN
	1    9350 9250
	0    -1   -1   0   
$EndComp
Wire Wire Line
	9350 8850 9100 8850
Wire Wire Line
	9100 8850 9100 9600
Wire Wire Line
	9100 9600 10350 9600
$Comp
L power:+12V #PWR0129
U 1 1 607CE056
P 10800 8750
F 0 "#PWR0129" H 10800 8600 50  0001 C CNN
F 1 "+12V" H 10900 8850 50  0000 C CNN
F 2 "" H 10800 8750 50  0001 C CNN
F 3 "" H 10800 8750 50  0001 C CNN
	1    10800 8750
	1    0    0    -1  
$EndComp
Wire Wire Line
	10350 8850 10550 8850
Wire Wire Line
	10550 8850 10550 8550
$Comp
L Device:D_Schottky D3
U 1 1 607CFB1E
P 11850 8850
F 0 "D3" H 11850 8650 50  0000 C CNN
F 1 "D_Schottky" H 11850 8750 50  0000 C CNN
F 2 "" H 11850 8850 50  0001 C CNN
F 3 "~" H 11850 8850 50  0001 C CNN
	1    11850 8850
	1    0    0    -1  
$EndComp
$Comp
L Device:D_Schottky D2
U 1 1 607D13C9
P 11400 8850
F 0 "D2" H 11400 8650 50  0000 C CNN
F 1 "D_Schottky" H 11400 8750 50  0000 C CNN
F 2 "" H 11400 8850 50  0001 C CNN
F 3 "~" H 11400 8850 50  0001 C CNN
	1    11400 8850
	1    0    0    -1  
$EndComp
Wire Wire Line
	11700 8850 11550 8850
$Comp
L power:GND #PWR0130
U 1 1 607D36DB
P 11250 8850
F 0 "#PWR0130" H 11250 8600 50  0001 C CNN
F 1 "GND" V 11150 8750 50  0000 C CNN
F 2 "" H 11250 8850 50  0001 C CNN
F 3 "" H 11250 8850 50  0001 C CNN
	1    11250 8850
	0    1    1    0   
$EndComp
$Comp
L Device:CP1 C17
U 1 1 607D5150
P 11550 8700
F 0 "C17" H 11665 8746 50  0000 L CNN
F 1 "22µF" H 11665 8655 50  0000 L CNN
F 2 "" H 11550 8700 50  0001 C CNN
F 3 "~" H 11550 8700 50  0001 C CNN
	1    11550 8700
	1    0    0    -1  
$EndComp
Connection ~ 11550 8850
$Comp
L Regulator_Linear:L79L05_TO92 U10
U 1 1 607D8ACF
P 12800 8850
F 0 "U10" H 12800 8700 50  0000 C CNN
F 1 "L79L05_TO92" H 12800 8609 50  0000 C CNN
F 2 "Package_TO_SOT_THT:TO-92_Inline" H 12800 8650 50  0001 C CIN
F 3 "http://www.farnell.com/datasheets/1827870.pdf" H 12800 8850 50  0001 C CNN
	1    12800 8850
	1    0    0    -1  
$EndComp
$Comp
L Device:CP1_Small C19
U 1 1 607DEF13
P 12350 8750
F 0 "C19" H 12100 8800 50  0000 L CNN
F 1 "10µF" H 12050 8700 50  0000 L CNN
F 2 "" H 12350 8750 50  0001 C CNN
F 3 "~" H 12350 8750 50  0001 C CNN
	1    12350 8750
	1    0    0    -1  
$EndComp
Wire Wire Line
	12350 8850 12500 8850
Wire Wire Line
	12350 8650 12350 8550
Wire Wire Line
	12350 8550 12800 8550
$Comp
L Device:CP1_Small C20
U 1 1 607E2BA7
P 13250 8750
F 0 "C20" H 13350 8800 50  0000 L CNN
F 1 "10µF" H 13350 8700 50  0000 L CNN
F 2 "" H 13250 8750 50  0001 C CNN
F 3 "~" H 13250 8750 50  0001 C CNN
	1    13250 8750
	1    0    0    -1  
$EndComp
Wire Wire Line
	13250 8850 13100 8850
Wire Wire Line
	12800 8550 13250 8550
Wire Wire Line
	13250 8550 13250 8650
Connection ~ 12800 8550
$Comp
L power:GND #PWR0131
U 1 1 607E6332
P 12800 8550
F 0 "#PWR0131" H 12800 8300 50  0001 C CNN
F 1 "GND" H 12650 8500 50  0000 C CNN
F 2 "" H 12800 8550 50  0001 C CNN
F 3 "" H 12800 8550 50  0001 C CNN
	1    12800 8550
	-1   0    0    1   
$EndComp
Wire Wire Line
	12350 8850 12000 8850
Connection ~ 12350 8850
Connection ~ 13250 8850
$Comp
L power:-5V #PWR0132
U 1 1 607EBE41
P 13250 8850
F 0 "#PWR0132" H 13250 8950 50  0001 C CNN
F 1 "-5V" V 13265 8978 50  0000 L CNN
F 2 "" H 13250 8850 50  0001 C CNN
F 3 "" H 13250 8850 50  0001 C CNN
	1    13250 8850
	-1   0    0    1   
$EndComp
Wire Wire Line
	10800 9050 10800 9250
Wire Wire Line
	11550 8550 10550 8550
NoConn ~ 9350 9050
Wire Notes Line
	8750 7050 13550 7050
Wire Notes Line
	13550 7050 13550 9750
Wire Notes Line
	13550 9750 8750 9750
Wire Notes Line
	8750 9750 8750 7050
Wire Wire Line
	9750 7800 9750 7950
Wire Wire Line
	9750 7700 10000 7700
Connection ~ 10000 7700
Wire Wire Line
	10000 7700 10900 7700
Wire Bus Line
	6550 12650 6550 13300
Wire Bus Line
	7650 10250 7650 12050
Wire Bus Line
	8950 10250 8950 12050
Wire Bus Line
	10250 10250 10250 12050
Wire Bus Line
	11550 10250 11550 12050
Wire Bus Line
	6550 10250 6550 12650
Wire Bus Line
	7650 12650 7650 14450
Wire Bus Line
	8950 12650 8950 14450
Wire Bus Line
	10250 12650 10250 14450
Wire Bus Line
	11550 12650 11550 14450
$EndSCHEMATC
